110.35196945112168
111.67626188276611
113.6213038944991
116.3521437176633
119.52244673527235
123.93811554011062
128.02795893909385
131.86198525820066
136.72333574151787
142.4375067236408
147.50520896611317
151.7462308688719
156.43622291658576
161.8567887061109
167.54073848953135
173.7724635000847
180.66574934561626
188.02171829979343
196.10324851242487
204.8997639170845
214.55145237938643
224.17914439061784
228.58214675921135
228.13750372692436
225.7512319264225
222.2949349471788
218.4338489264507
214.55847843118002
210.63495186473966
206.77522135904044
203.2788970570624
199.9909421804109
196.83746679981545
193.68907497416197
190.57020807522542
187.48662554994428
184.4055069560082
181.584486208886
179.17437415570691
177.1781030793885
175.5320937936704
174.0555574708456
172.7614432886054
171.66465759412563
170.7223787607436
169.90367193936459
169.15058212057534
168.5288305183401
167.91195449673992
167.3127383780517
166.73202548727681
166.19256603902235
165.81235711429036
165.44574888442833
165.08525010864452
164.7941142558762
164.49677088035918
164.21732890117372
163.9583833502014
163.78912021377877
163.60181901400583
163.47391130474972
163.30712312518864
163.2625326025339
163.13543866382594
163.05291094256856
162.9992691217729
162.93508282464194
162.8984769194697
162.78485015162394
162.69825005294643
162.680245715039
162.60030934257682
162.59998330900808
162.61704208864214
162.50117816174406
162.53437624855107
162.3570059590287
162.44619300063627
162.25920236113745
162.34650806228126
162.2310245469193
162.31357363563993
162.26667696815707
162.30028020127588
162.22282902767833
162.21117819614716
162.14546013159747
162.16899174251512
162.20531164617068
162.1439231245063
162.16237515431635
162.2070290103845
162.1455549628187
162.1551665346426
162.19850199511
162.1849650713125
162.20501598492825
162.18343360725166
162.1501973266525
162.17379603009542
