\relax 
\providecommand\hyper@newdestlabel[2]{}
\providecommand\HyperFirstAtBeginDocument{\AtBeginDocument}
\HyperFirstAtBeginDocument{\ifx\hyper@anchor\@undefined
\global\let\oldcontentsline\contentsline
\gdef\contentsline#1#2#3#4{\oldcontentsline{#1}{#2}{#3}}
\global\let\oldnewlabel\newlabel
\gdef\newlabel#1#2{\newlabelxx{#1}#2}
\gdef\newlabelxx#1#2#3#4#5#6{\oldnewlabel{#1}{{#2}{#3}}}
\AtEndDocument{\ifx\hyper@anchor\@undefined
\let\contentsline\oldcontentsline
\let\newlabel\oldnewlabel
\fi}
\fi}
\global\let\hyper@last\relax 
\gdef\HyperFirstAtBeginDocument#1{#1}
\providecommand\HyField@AuxAddToFields[1]{}
\providecommand\HyField@AuxAddToCoFields[2]{}
\providecommand \oddpage@label [2]{}
\@writefile{toc}{\@ifundefined {etoctocstyle}{\let \etoc@startlocaltoc \@gobble \let \etoc@settocdepth \@gobble \let \etoc@depthtag \@gobble \let \etoc@setlocaltop \@gobble }{}}
\@writefile{toc}{\contentsline {chapter}{\numberline {1}Todo List}{1}{chapter.1}}
\@writefile{lof}{\addvspace {10\p@ }}
\@writefile{lot}{\addvspace {10\p@ }}
\newlabel{todo}{{1}{1}{Todo List}{chapter.1}{}}
\newlabel{todo__todo000001}{{1}{1}{Todo List}{chapter.1}{}}
\newlabel{todo__todo000002}{{1}{1}{Todo List}{chapter.1}{}}
\newlabel{todo__todo000003}{{1}{1}{Todo List}{chapter.1}{}}
\newlabel{todo__todo000004}{{1}{1}{Todo List}{chapter.1}{}}
\newlabel{todo__todo000005}{{1}{1}{Todo List}{chapter.1}{}}
\newlabel{todo__todo000006}{{1}{1}{Todo List}{chapter.1}{}}
\newlabel{todo__todo000007}{{1}{1}{Todo List}{chapter.1}{}}
\newlabel{todo__todo000008}{{1}{1}{Todo List}{chapter.1}{}}
\newlabel{todo__todo000010}{{1}{1}{Todo List}{chapter.1}{}}
\newlabel{todo__todo000009}{{1}{1}{Todo List}{chapter.1}{}}
\@writefile{toc}{\contentsline {chapter}{\numberline {2}Hierarchical Index}{3}{chapter.2}}
\@writefile{lof}{\addvspace {10\p@ }}
\@writefile{lot}{\addvspace {10\p@ }}
\@writefile{toc}{\contentsline {section}{\numberline {2.1}Class Hierarchy}{3}{section.2.1}}
\@writefile{toc}{\contentsline {chapter}{\numberline {3}Class Index}{5}{chapter.3}}
\@writefile{lof}{\addvspace {10\p@ }}
\@writefile{lot}{\addvspace {10\p@ }}
\@writefile{toc}{\contentsline {section}{\numberline {3.1}Class List}{5}{section.3.1}}
\@writefile{toc}{\contentsline {chapter}{\numberline {4}File Index}{7}{chapter.4}}
\@writefile{lof}{\addvspace {10\p@ }}
\@writefile{lot}{\addvspace {10\p@ }}
\@writefile{toc}{\contentsline {section}{\numberline {4.1}File List}{7}{section.4.1}}
\@writefile{toc}{\contentsline {chapter}{\numberline {5}Class Documentation}{9}{chapter.5}}
\@writefile{lof}{\addvspace {10\p@ }}
\@writefile{lot}{\addvspace {10\p@ }}
\@writefile{toc}{\contentsline {section}{\numberline {5.1}Blob Class Reference}{9}{section.5.1}}
\newlabel{classBlob}{{5}{9}{Class Documentation}{section.5.1}{}}
\newlabel{classBlob_a6a0d29e3183e1458d1b9e6a5ca584826}{{5}{9}{Class Documentation}{section*.2}{}}
\newlabel{classBlob_abb7746fe3753477648f73d2699292846}{{5}{9}{Class Documentation}{section*.3}{}}
\newlabel{classBlob_a642dc2ab94ce77d5f22fbb9f1e8d4bc3}{{5}{9}{Class Documentation}{section*.3}{}}
\newlabel{classBlob_a9de25d8bac412347e925e0a59548dd94}{{5}{9}{Class Documentation}{section*.3}{}}
\newlabel{classBlob_a04f7ad83f213ad2de99c976c56741730}{{5}{9}{Class Documentation}{section*.3}{}}
\gdef \LT@i {\LT@entry 
    {3}{22.30386pt}\LT@entry 
    {3}{111.08269pt}}
\newlabel{classBlob_a626fff469b54ef079cf6d071b388faf5}{{5}{10}{Class Documentation}{section*.3}{}}
\newlabel{classBlob_a5b5cef40e8ba070f04f072451b7752d6}{{5}{10}{Class Documentation}{section*.3}{}}
\newlabel{classBlob_abc10fcc0c4aa9cdc1aeba0ffc350941c}{{5}{10}{Class Documentation}{section*.3}{}}
\newlabel{classBlob_aeb723b0eaae34faecac4956e94191d48}{{5}{10}{Class Documentation}{section*.3}{}}
\@writefile{toc}{\contentsline {subsection}{\numberline {5.1.1}Detailed Description}{10}{subsection.5.1.1}}
\@writefile{toc}{\contentsline {subsection}{\numberline {5.1.2}Constructor \& Destructor Documentation}{10}{subsection.5.1.2}}
\newlabel{classBlob_a8656d8170201c0757fe79b89ba98d1e9}{{5}{10}{Class Documentation}{subsection.5.1.2}{}}
\@writefile{toc}{\contentsline {subsubsection}{\numberline {5.1.2.1}Blob()}{10}{subsubsection.5.1.2.1}}
\@writefile{toc}{\contentsline {subsection}{\numberline {5.1.3}Member Function Documentation}{10}{subsection.5.1.3}}
\newlabel{classBlob_acf582601f4ec3185b3ad2a646fa2c5ec}{{5}{10}{Class Documentation}{subsection.5.1.3}{}}
\@writefile{toc}{\contentsline {subsubsection}{\numberline {5.1.3.1}GetMinDist()}{10}{subsubsection.5.1.3.1}}
\gdef \LT@ii {\LT@entry 
    {3}{32.31155pt}\LT@entry 
    {3}{140.46704pt}}
\gdef \LT@iii {\LT@entry 
    {3}{32.31155pt}\LT@entry 
    {3}{143.47287pt}}
\newlabel{classBlob_afb5054274648e8ec19a488a9b939e699}{{5}{11}{Class Documentation}{table.5.2}{}}
\@writefile{toc}{\contentsline {subsubsection}{\numberline {5.1.3.2}RotatePoint()}{11}{subsubsection.5.1.3.2}}
\@writefile{toc}{\contentsline {section}{\numberline {5.2}Boundary Class Reference}{11}{section.5.2}}
\newlabel{classBoundary}{{5}{11}{Class Documentation}{section.5.2}{}}
\newlabel{classBoundary_af95e195da70a7b71e918b037d8902833}{{5}{11}{Class Documentation}{section*.4}{}}
\newlabel{classBoundary_a2ceb1b081b0991ea88910ae83c742d55}{{5}{12}{Class Documentation}{section*.4}{}}
\newlabel{classBoundary_acc091df11aeb275327f4a396e54649ef}{{5}{12}{Class Documentation}{section*.4}{}}
\newlabel{classBoundary_a1c14fef072d0fe15afaafaa812ece271}{{5}{12}{Class Documentation}{section*.4}{}}
\newlabel{classBoundary_addd9442a8b1580c8ecfeb03df54a205c}{{5}{12}{Class Documentation}{section*.4}{}}
\newlabel{classBoundary_a4f087de418233f0746c37fc467fd81c7}{{5}{12}{Class Documentation}{section*.5}{}}
\newlabel{classBoundary_ad0ece23c0706ecf0f95e122d0dbbf84a}{{5}{12}{Class Documentation}{section*.5}{}}
\newlabel{classBoundary_aa59d04204924c265b2285ad183e2e080}{{5}{12}{Class Documentation}{section*.5}{}}
\newlabel{classBoundary_a71bb4b47f2988925a109430627cc0d50}{{5}{12}{Class Documentation}{section*.5}{}}
\newlabel{classBoundary_a7bf4cf4f159c4fc759ba96e527b7af75}{{5}{12}{Class Documentation}{section*.5}{}}
\newlabel{classBoundary_abd3f58f0435dd1c1959e35fe5fb78e07}{{5}{12}{Class Documentation}{section*.5}{}}
\newlabel{classBoundary_a35732e081d1a5e6a8f84bbf33b64b36e}{{5}{12}{Class Documentation}{section*.5}{}}
\newlabel{classBoundary_a6e55b7bab37b68efb19902bd5bcea643}{{5}{12}{Class Documentation}{section*.6}{}}
\newlabel{classBoundary_a9a778fb465db1fb782424ada3e5d6bc5}{{5}{12}{Class Documentation}{section*.6}{}}
\newlabel{classBoundary_ad9d9a34d0c6c4b365f1c9b9fc2850c6b}{{5}{12}{Class Documentation}{section*.6}{}}
\newlabel{classBoundary_a5326536bd8e5550a80932d4b303cbef6}{{5}{12}{Class Documentation}{section*.6}{}}
\newlabel{classBoundary_a0c28b0df68038a16ddcab0f5cbfa61b0}{{5}{12}{Class Documentation}{section*.7}{}}
\newlabel{classBoundary_a72e43361ebef0b1b8095a07dce23d934}{{5}{12}{Class Documentation}{section*.7}{}}
\newlabel{classBoundary_ae108c18c25dc427e8fefe718aa61e369}{{5}{12}{Class Documentation}{section*.7}{}}
\newlabel{classBoundary_a655f0763bdc251339771175691f3289c}{{5}{12}{Class Documentation}{section*.7}{}}
\gdef \LT@iv {\LT@entry 
    {3}{18.80287pt}\LT@entry 
    {3}{144.20212pt}}
\gdef \LT@v {\LT@entry 
    {3}{42.7965pt}\LT@entry 
    {3}{180.74205pt}}
\gdef \LT@vi {\LT@entry 
    {3}{42.7965pt}\LT@entry 
    {3}{180.74205pt}}
\@writefile{toc}{\contentsline {subsection}{\numberline {5.2.1}Detailed Description}{13}{subsection.5.2.1}}
\@writefile{toc}{\contentsline {subsection}{\numberline {5.2.2}Constructor \& Destructor Documentation}{13}{subsection.5.2.2}}
\newlabel{classBoundary_abb4b40b558eb6803cc2d26d66baac65b}{{5}{13}{Class Documentation}{subsection.5.2.2}{}}
\@writefile{toc}{\contentsline {subsubsection}{\numberline {5.2.2.1}Boundary()}{13}{subsubsection.5.2.2.1}}
\@writefile{toc}{\contentsline {subsection}{\numberline {5.2.3}Member Function Documentation}{13}{subsection.5.2.3}}
\newlabel{classBoundary_a97be4f644a8a46f9817f49eb5233edf5}{{5}{13}{Class Documentation}{subsection.5.2.3}{}}
\@writefile{toc}{\contentsline {subsubsection}{\numberline {5.2.3.1}DomainDistance()}{13}{subsubsection.5.2.3.1}}
\newlabel{classBoundary_a8afcf0e96dc77ea24d7830136254a6f2}{{5}{13}{Class Documentation}{table.5.5}{}}
\@writefile{toc}{\contentsline {subsubsection}{\numberline {5.2.3.2}FixLocDistance()}{13}{subsubsection.5.2.3.2}}
\gdef \LT@vii {\LT@entry 
    {3}{41.59055pt}\LT@entry 
    {3}{163.17386pt}}
\gdef \LT@viii {\LT@entry 
    {3}{51.68832pt}\LT@entry 
    {3}{97.43944pt}}
\gdef \LT@ix {\LT@entry 
    {3}{53.44336pt}\LT@entry 
    {3}{199.8664pt}}
\newlabel{classBoundary_a5f7bceb000c503687f6db339e90a661b}{{5}{14}{Class Documentation}{table.5.6}{}}
\@writefile{toc}{\contentsline {subsubsection}{\numberline {5.2.3.3}LinearInterp()}{14}{subsubsection.5.2.3.3}}
\newlabel{classBoundary_abd6bb2946ce0fd35d85a16e6a755bb3e}{{5}{14}{Class Documentation}{table.5.7}{}}
\@writefile{toc}{\contentsline {subsubsection}{\numberline {5.2.3.4}MarchCubes()}{14}{subsubsection.5.2.3.4}}
\newlabel{classBoundary_aa288154bcb4adfeaa7387a6adaab22e4}{{5}{14}{Class Documentation}{table.5.8}{}}
\@writefile{toc}{\contentsline {subsubsection}{\numberline {5.2.3.5}Optimize()\hspace  {0.1cm}{\relax \fontsize  {8}{9.5}\selectfont  \abovedisplayskip 6\p@ plus2\p@ minus4\p@ \abovedisplayshortskip \z@ plus\p@ \belowdisplayshortskip 3\p@ plus\p@ minus2\p@ \def \leftmargin \leftmargini \parsep 4\p@ plus2\p@ minus\p@ \topsep 8\p@ plus2\p@ minus4\p@ \itemsep 4\p@ plus2\p@ minus\p@ {\leftmargin \leftmargini \topsep 3\p@ plus\p@ minus\p@ \parsep 2\p@ plus\p@ minus\p@ \itemsep \parsep }\belowdisplayskip \abovedisplayskip \ttfamily  [1/2]}}{14}{subsubsection.5.2.3.5}}
\gdef \LT@x {\LT@entry 
    {3}{45.31642pt}\LT@entry 
    {3}{205.2571pt}}
\gdef \LT@xi {\LT@entry 
    {3}{51.81435pt}\LT@entry 
    {3}{155.32605pt}}
\gdef \LT@xii {\LT@entry 
    {3}{51.81435pt}\LT@entry 
    {3}{86.92735pt}}
\newlabel{classBoundary_a0512f0401960295bcab1762400d13ce8}{{5}{15}{Class Documentation}{table.5.9}{}}
\@writefile{toc}{\contentsline {subsubsection}{\numberline {5.2.3.6}Optimize()\hspace  {0.1cm}{\relax \fontsize  {8}{9.5}\selectfont  \abovedisplayskip 6\p@ plus2\p@ minus4\p@ \abovedisplayshortskip \z@ plus\p@ \belowdisplayshortskip 3\p@ plus\p@ minus2\p@ \def \leftmargin \leftmargini \parsep 4\p@ plus2\p@ minus\p@ \topsep 8\p@ plus2\p@ minus4\p@ \itemsep 4\p@ plus2\p@ minus\p@ {\leftmargin \leftmargini \topsep 3\p@ plus\p@ minus\p@ \parsep 2\p@ plus\p@ minus\p@ \itemsep \parsep }\belowdisplayskip \abovedisplayskip \ttfamily  [2/2]}}{15}{subsubsection.5.2.3.6}}
\newlabel{classBoundary_a5e4f7ffd313ed924ecf05ea74cdfabd2}{{5}{15}{Class Documentation}{table.5.10}{}}
\@writefile{toc}{\contentsline {subsubsection}{\numberline {5.2.3.7}WritePatch()}{15}{subsubsection.5.2.3.7}}
\newlabel{classBoundary_abf965d99f8e8f694713ebb255ccb1637}{{5}{15}{Class Documentation}{table.5.11}{}}
\@writefile{toc}{\contentsline {subsubsection}{\numberline {5.2.3.8}WriteSTL()}{15}{subsubsection.5.2.3.8}}
\@writefile{toc}{\contentsline {section}{\numberline {5.3}Cuboid Class Reference}{15}{section.5.3}}
\newlabel{classCuboid}{{5}{15}{Class Documentation}{section.5.3}{}}
\newlabel{classCuboid_a1abf60e93d024b7a01ee5b1a48f1f08a}{{5}{16}{Class Documentation}{section*.9}{}}
\newlabel{classCuboid_ab3ef9ed75c715d262cf3b28c88897beb}{{5}{16}{Class Documentation}{section*.10}{}}
\newlabel{classCuboid_aba5c1d69150c56de21bb96a3377345bb}{{5}{16}{Class Documentation}{section*.10}{}}
\newlabel{classCuboid_a50e7daf081ac6feb0a91e94232ecc55d}{{5}{16}{Class Documentation}{section*.10}{}}
\newlabel{classBlob_abb7746fe3753477648f73d2699292846}{{5}{16}{Class Documentation}{section*.10}{}}
\newlabel{classBlob_a642dc2ab94ce77d5f22fbb9f1e8d4bc3}{{5}{16}{Class Documentation}{section*.10}{}}
\newlabel{classBlob_a9de25d8bac412347e925e0a59548dd94}{{5}{16}{Class Documentation}{section*.10}{}}
\newlabel{classBlob_a04f7ad83f213ad2de99c976c56741730}{{5}{16}{Class Documentation}{section*.10}{}}
\newlabel{classBlob_a626fff469b54ef079cf6d071b388faf5}{{5}{16}{Class Documentation}{section*.10}{}}
\newlabel{classBlob_a5b5cef40e8ba070f04f072451b7752d6}{{5}{16}{Class Documentation}{section*.10}{}}
\newlabel{classBlob_abc10fcc0c4aa9cdc1aeba0ffc350941c}{{5}{16}{Class Documentation}{section*.10}{}}
\newlabel{classBlob_aeb723b0eaae34faecac4956e94191d48}{{5}{16}{Class Documentation}{section*.10}{}}
\gdef \LT@xiii {\LT@entry 
    {3}{27.30777pt}\LT@entry 
    {3}{157.96274pt}}
\gdef \LT@xiv {\LT@entry 
    {3}{32.31155pt}\LT@entry 
    {3}{140.46704pt}}
\@writefile{toc}{\contentsline {subsection}{\numberline {5.3.1}Detailed Description}{17}{subsection.5.3.1}}
\@writefile{toc}{\contentsline {subsection}{\numberline {5.3.2}Constructor \& Destructor Documentation}{17}{subsection.5.3.2}}
\newlabel{classCuboid_aa9f38ab4a4a2de7708d45d720297ebac}{{5}{17}{Class Documentation}{subsection.5.3.2}{}}
\@writefile{toc}{\contentsline {subsubsection}{\numberline {5.3.2.1}Cuboid()}{17}{subsubsection.5.3.2.1}}
\@writefile{toc}{\contentsline {subsection}{\numberline {5.3.3}Member Function Documentation}{17}{subsection.5.3.3}}
\newlabel{classCuboid_a8ae654273e03919ee68061c137924e59}{{5}{17}{Class Documentation}{subsection.5.3.3}{}}
\@writefile{toc}{\contentsline {subsubsection}{\numberline {5.3.3.1}GetMinDist()}{17}{subsubsection.5.3.3.1}}
\gdef \LT@xv {\LT@entry 
    {3}{32.31155pt}\LT@entry 
    {3}{143.47287pt}}
\newlabel{classBlob_afb5054274648e8ec19a488a9b939e699}{{5}{18}{Class Documentation}{table.5.14}{}}
\@writefile{toc}{\contentsline {subsubsection}{\numberline {5.3.3.2}RotatePoint()}{18}{subsubsection.5.3.3.2}}
\@writefile{toc}{\contentsline {section}{\numberline {5.4}Cut\discretionary {\unhbox \voidb@x \hbox {\relax \fontsize  {7}{8}\selectfont  $\leftarrow \joinrel  \rhook $}}{}{}Plane Class Reference}{18}{section.5.4}}
\newlabel{classCutPlane}{{5}{18}{Class Documentation}{section.5.4}{}}
\newlabel{classCutPlane_af0245a42c1d38f642156a861d9584b2e}{{5}{18}{Class Documentation}{section*.12}{}}
\newlabel{classCutPlane_a2918e1c73daebcbd3d0c0225de6d0b21}{{5}{19}{Class Documentation}{section*.13}{}}
\newlabel{classCutPlane_a58c5df0516926a1ec4955f296bd81f48}{{5}{19}{Class Documentation}{section*.13}{}}
\newlabel{classCutPlane_aca4f43d3c1f9dc824fee39657a7b6155}{{5}{19}{Class Documentation}{section*.13}{}}
\newlabel{classCutPlane_a54fe52f7a869f28989639ed198cbaf56}{{5}{19}{Class Documentation}{section*.13}{}}
\newlabel{classCutPlane_af9e2e8d2b0ab0c192aabd94e522abbdf}{{5}{19}{Class Documentation}{section*.13}{}}
\newlabel{classBlob_abb7746fe3753477648f73d2699292846}{{5}{19}{Class Documentation}{section*.13}{}}
\newlabel{classBlob_a642dc2ab94ce77d5f22fbb9f1e8d4bc3}{{5}{19}{Class Documentation}{section*.13}{}}
\newlabel{classBlob_a9de25d8bac412347e925e0a59548dd94}{{5}{19}{Class Documentation}{section*.13}{}}
\newlabel{classBlob_a04f7ad83f213ad2de99c976c56741730}{{5}{19}{Class Documentation}{section*.13}{}}
\newlabel{classBlob_a626fff469b54ef079cf6d071b388faf5}{{5}{19}{Class Documentation}{section*.13}{}}
\newlabel{classBlob_a5b5cef40e8ba070f04f072451b7752d6}{{5}{19}{Class Documentation}{section*.13}{}}
\newlabel{classBlob_abc10fcc0c4aa9cdc1aeba0ffc350941c}{{5}{19}{Class Documentation}{section*.13}{}}
\newlabel{classBlob_aeb723b0eaae34faecac4956e94191d48}{{5}{19}{Class Documentation}{section*.13}{}}
\@writefile{toc}{\contentsline {subsection}{\numberline {5.4.1}Detailed Description}{19}{subsection.5.4.1}}
\@writefile{toc}{\contentsline {subsection}{\numberline {5.4.2}Constructor \& Destructor Documentation}{19}{subsection.5.4.2}}
\newlabel{classCutPlane_a5c070a2819bdd8ea61cfed134837fb1d}{{5}{19}{Class Documentation}{subsection.5.4.2}{}}
\@writefile{toc}{\contentsline {subsubsection}{\numberline {5.4.2.1}CutPlane()}{19}{subsubsection.5.4.2.1}}
\gdef \LT@xvi {\LT@entry 
    {3}{27.8117pt}\LT@entry 
    {3}{79.16953pt}}
\gdef \LT@xvii {\LT@entry 
    {3}{32.31155pt}\LT@entry 
    {3}{140.46704pt}}
\gdef \LT@xviii {\LT@entry 
    {3}{32.31155pt}\LT@entry 
    {3}{143.47287pt}}
\@writefile{toc}{\contentsline {subsection}{\numberline {5.4.3}Member Function Documentation}{20}{subsection.5.4.3}}
\newlabel{classCutPlane_a220ac69ca3ef4504f7e69e538ab78768}{{5}{20}{Class Documentation}{subsection.5.4.3}{}}
\@writefile{toc}{\contentsline {subsubsection}{\numberline {5.4.3.1}GetMinDist()}{20}{subsubsection.5.4.3.1}}
\newlabel{classBlob_afb5054274648e8ec19a488a9b939e699}{{5}{20}{Class Documentation}{table.5.17}{}}
\@writefile{toc}{\contentsline {subsubsection}{\numberline {5.4.3.2}RotatePoint()}{20}{subsubsection.5.4.3.2}}
\@writefile{toc}{\contentsline {section}{\numberline {5.5}Cylinder Class Reference}{21}{section.5.5}}
\newlabel{classCylinder}{{5}{21}{Class Documentation}{section.5.5}{}}
\newlabel{classCylinder_a01dc978cb576f834b9545e43d4dad2a2}{{5}{21}{Class Documentation}{section*.15}{}}
\newlabel{classCylinder_a99f3dea8a167e4262ccacfa73ad684c4}{{5}{21}{Class Documentation}{section*.16}{}}
\newlabel{classCylinder_a36efa9349e0a6d861560dbf69a4bfa03}{{5}{21}{Class Documentation}{section*.16}{}}
\newlabel{classCylinder_a5598fec6c2ef5a41851bf8c93ee5281d}{{5}{21}{Class Documentation}{section*.16}{}}
\newlabel{classCylinder_ab6ab514403233d4325b752309408d11a}{{5}{21}{Class Documentation}{section*.16}{}}
\newlabel{classBlob_abb7746fe3753477648f73d2699292846}{{5}{21}{Class Documentation}{section*.16}{}}
\newlabel{classBlob_a642dc2ab94ce77d5f22fbb9f1e8d4bc3}{{5}{21}{Class Documentation}{section*.16}{}}
\newlabel{classBlob_a9de25d8bac412347e925e0a59548dd94}{{5}{21}{Class Documentation}{section*.16}{}}
\newlabel{classBlob_a04f7ad83f213ad2de99c976c56741730}{{5}{21}{Class Documentation}{section*.16}{}}
\newlabel{classBlob_a626fff469b54ef079cf6d071b388faf5}{{5}{21}{Class Documentation}{section*.16}{}}
\newlabel{classBlob_a5b5cef40e8ba070f04f072451b7752d6}{{5}{21}{Class Documentation}{section*.16}{}}
\newlabel{classBlob_abc10fcc0c4aa9cdc1aeba0ffc350941c}{{5}{21}{Class Documentation}{section*.16}{}}
\newlabel{classBlob_aeb723b0eaae34faecac4956e94191d48}{{5}{21}{Class Documentation}{section*.16}{}}
\gdef \LT@xix {\LT@entry 
    {3}{27.80269pt}\LT@entry 
    {3}{427.44142pt}}
\gdef \LT@xx {\LT@entry 
    {3}{32.31155pt}\LT@entry 
    {3}{140.46704pt}}
\@writefile{toc}{\contentsline {subsection}{\numberline {5.5.1}Detailed Description}{22}{subsection.5.5.1}}
\@writefile{toc}{\contentsline {subsection}{\numberline {5.5.2}Constructor \& Destructor Documentation}{22}{subsection.5.5.2}}
\newlabel{classCylinder_a78dee4b85b24b26eeec4854be9c7b3f6}{{5}{22}{Class Documentation}{subsection.5.5.2}{}}
\@writefile{toc}{\contentsline {subsubsection}{\numberline {5.5.2.1}Cylinder()}{22}{subsubsection.5.5.2.1}}
\@writefile{toc}{\contentsline {subsection}{\numberline {5.5.3}Member Function Documentation}{22}{subsection.5.5.3}}
\newlabel{classCylinder_a26af94d42ef771235635bed7fdf60b6c}{{5}{22}{Class Documentation}{subsection.5.5.3}{}}
\@writefile{toc}{\contentsline {subsubsection}{\numberline {5.5.3.1}GetMinDist()}{22}{subsubsection.5.5.3.1}}
\gdef \LT@xxi {\LT@entry 
    {3}{32.31155pt}\LT@entry 
    {3}{143.47287pt}}
\newlabel{classBlob_afb5054274648e8ec19a488a9b939e699}{{5}{23}{Class Documentation}{table.5.20}{}}
\@writefile{toc}{\contentsline {subsubsection}{\numberline {5.5.3.2}RotatePoint()}{23}{subsubsection.5.5.3.2}}
\@writefile{toc}{\contentsline {section}{\numberline {5.6}Fixed\discretionary {\unhbox \voidb@x \hbox {\relax \fontsize  {7}{8}\selectfont  $\leftarrow \joinrel  \rhook $}}{}{}Dof Class Reference}{23}{section.5.6}}
\newlabel{classFixedDof}{{5}{23}{Class Documentation}{section.5.6}{}}
\newlabel{classFixedDof_a3e6509881cd9e08b07eea02403bb1a93}{{5}{23}{Class Documentation}{section*.17}{}}
\newlabel{classFixedDof_ab1896dd7c7915cf68320cfe83da6163c}{{5}{23}{Class Documentation}{section*.18}{}}
\newlabel{classFixedDof_a57c3fe8ed7e7b667045b00359aba4699}{{5}{23}{Class Documentation}{section*.18}{}}
\newlabel{classFixedDof_a28b0aa9fb3a765fb548c70e3f752db12}{{5}{23}{Class Documentation}{section*.18}{}}
\newlabel{classFixedDof_a46afc0cb12a32dcd880a4f9f968cb208}{{5}{23}{Class Documentation}{section*.18}{}}
\newlabel{classFixedDof_abe7999d9bba9ed295b0fa60c799696be}{{5}{23}{Class Documentation}{section*.18}{}}
\newlabel{classFixedDof_a9e1bb4559ba98ef5bf978dbe71df781b}{{5}{23}{Class Documentation}{section*.18}{}}
\newlabel{classFixedDof_a3e04d60fd42888eb7fabbe3ea558a27a}{{5}{23}{Class Documentation}{section*.18}{}}
\newlabel{classFixedDof_a87854a5d6cda4ce2caeb0422622b6432}{{5}{23}{Class Documentation}{section*.18}{}}
\newlabel{classFixedDof_a4a8139e83cfc25a6b580a337e1e07420}{{5}{23}{Class Documentation}{section*.18}{}}
\@writefile{toc}{\contentsline {section}{\numberline {5.7}Force Class Reference}{24}{section.5.7}}
\newlabel{classForce}{{5}{24}{Class Documentation}{section.5.7}{}}
\newlabel{classForce_adcef2a490083eac2e886fd80f061b201}{{5}{24}{Class Documentation}{section*.19}{}}
\newlabel{classForce_a43fb8583ab8c4e1e87da72b005fcff97}{{5}{24}{Class Documentation}{section*.20}{}}
\newlabel{classForce_af20c001e962828e6ff62747ffd2e1171}{{5}{24}{Class Documentation}{section*.20}{}}
\newlabel{classForce_a7dc60d34889c55ac70b93f07e4bfd5d0}{{5}{24}{Class Documentation}{section*.20}{}}
\newlabel{classForce_a0435912055269fba6f68db0723a026cf}{{5}{24}{Class Documentation}{section*.20}{}}
\newlabel{classForce_a3882e4ceb3834fa37488eebb03c3e44c}{{5}{24}{Class Documentation}{section*.20}{}}
\newlabel{classForce_add537b744b878704a301803640534199}{{5}{24}{Class Documentation}{section*.20}{}}
\newlabel{classForce_a6fe05ea8f477bbe23ab7dedd7d01a4e7}{{5}{24}{Class Documentation}{section*.20}{}}
\newlabel{classForce_a8070556e9e4df2506117f9897aa345bd}{{5}{24}{Class Documentation}{section*.20}{}}
\newlabel{classForce_a7543be66bef428ee9cad1ddf23425528}{{5}{24}{Class Documentation}{section*.20}{}}
\@writefile{toc}{\contentsline {section}{\numberline {5.8}Grid Class Reference}{24}{section.5.8}}
\newlabel{classGrid}{{5}{24}{Class Documentation}{section.5.8}{}}
\newlabel{classGrid_adcd0d4be2b6e1f6fb7740a1e066bc607}{{5}{24}{Class Documentation}{section*.22}{}}
\newlabel{classGrid_a758596c8abea360fcdcf8e8225074751}{{5}{24}{Class Documentation}{section*.22}{}}
\newlabel{classGrid_a3c4cc8971bd6428da903da015c9a2c5b}{{5}{24}{Class Documentation}{section*.22}{}}
\newlabel{classGrid_a76062b2c22ac1be876496e6469e968d8}{{5}{24}{Class Documentation}{section*.22}{}}
\gdef \LT@xxii {\LT@entry 
    {3}{34.30963pt}\LT@entry 
    {3}{126.35565pt}}
\gdef \LT@xxiii {\LT@entry 
    {3}{22.30386pt}\LT@entry 
    {3}{115.45665pt}}
\@writefile{toc}{\contentsline {subsection}{\numberline {5.8.1}Detailed Description}{25}{subsection.5.8.1}}
\@writefile{toc}{\contentsline {subsection}{\numberline {5.8.2}Constructor \& Destructor Documentation}{25}{subsection.5.8.2}}
\newlabel{classGrid_a3151dcc02798acc98c93a3a1e604859a}{{5}{25}{Class Documentation}{subsection.5.8.2}{}}
\@writefile{toc}{\contentsline {subsubsection}{\numberline {5.8.2.1}Grid()}{25}{subsubsection.5.8.2.1}}
\@writefile{toc}{\contentsline {subsection}{\numberline {5.8.3}Member Function Documentation}{25}{subsection.5.8.3}}
\newlabel{classGrid_a26b8d21ffdea954ea8c56e4125c11f75}{{5}{25}{Class Documentation}{subsection.5.8.3}{}}
\@writefile{toc}{\contentsline {subsubsection}{\numberline {5.8.3.1}GridPtToIndex()}{25}{subsubsection.5.8.3.1}}
\@writefile{toc}{\contentsline {section}{\numberline {5.9}Grid4\discretionary {\unhbox \voidb@x \hbox {\relax \fontsize  {7}{8}\selectfont  $\leftarrow \joinrel  \rhook $}}{}{}Vector Class Reference}{26}{section.5.9}}
\newlabel{classGrid4Vector}{{5}{26}{Class Documentation}{section.5.9}{}}
\newlabel{classGrid4Vector_aa7794eb6b00d3e3a3e0adeca71c7e4a3}{{5}{26}{Class Documentation}{section*.24}{}}
\newlabel{classGrid4Vector_a37afd46071ae2388fb487256e7839146}{{5}{26}{Class Documentation}{section*.24}{}}
\newlabel{classGridVector_a7a2e7ad15a5d41fdde7e34614ae55ecc}{{5}{26}{Class Documentation}{section*.24}{}}
\newlabel{classGrid4Vector_af5ad7073ab8aed7d3a99c56cb08b00f0}{{5}{26}{Class Documentation}{section*.25}{}}
\newlabel{classGridVector_a43b9eb74af81fb089f99b5112dd9af0c}{{5}{26}{Class Documentation}{section*.25}{}}
\newlabel{classGridVector_a369162a912d1cfa4e2ec3313db038b01}{{5}{26}{Class Documentation}{section*.25}{}}
\newlabel{classGridVector_a2de15b2ed0d269b822d05cfe7bd7cbf9}{{5}{26}{Class Documentation}{section*.25}{}}
\@writefile{toc}{\contentsline {subsection}{\numberline {5.9.1}Detailed Description}{26}{subsection.5.9.1}}
\@writefile{toc}{\contentsline {subsection}{\numberline {5.9.2}Constructor \& Destructor Documentation}{26}{subsection.5.9.2}}
\newlabel{classGrid4Vector_aab0d677b187bbfc2d41bab0a2cff5166}{{5}{26}{Class Documentation}{subsection.5.9.2}{}}
\@writefile{toc}{\contentsline {subsubsection}{\numberline {5.9.2.1}Grid4Vector()}{26}{subsubsection.5.9.2.1}}
\gdef \LT@xxiv {\LT@entry 
    {3}{29.08072pt}\LT@entry 
    {3}{250.02196pt}}
\@writefile{toc}{\contentsline {section}{\numberline {5.10}Grid\discretionary {\unhbox \voidb@x \hbox {\relax \fontsize  {7}{8}\selectfont  $\leftarrow \joinrel  \rhook $}}{}{}Vector Class Reference}{27}{section.5.10}}
\newlabel{classGridVector}{{5}{27}{Class Documentation}{section.5.10}{}}
\newlabel{classGridVector_ae0f59a142d2830477ec915cd43346232}{{5}{27}{Class Documentation}{section*.27}{}}
\newlabel{classGridVector_a7a2e7ad15a5d41fdde7e34614ae55ecc}{{5}{27}{Class Documentation}{section*.27}{}}
\newlabel{classGridVector_a43b9eb74af81fb089f99b5112dd9af0c}{{5}{27}{Class Documentation}{section*.28}{}}
\newlabel{classGridVector_a369162a912d1cfa4e2ec3313db038b01}{{5}{27}{Class Documentation}{section*.28}{}}
\newlabel{classGridVector_a2de15b2ed0d269b822d05cfe7bd7cbf9}{{5}{27}{Class Documentation}{section*.28}{}}
\gdef \LT@xxv {\LT@entry 
    {3}{22.30386pt}\LT@entry 
    {3}{115.45665pt}}
\gdef \LT@xxvi {\LT@entry 
    {3}{54.10023pt}\LT@entry 
    {3}{247.61867pt}}
\@writefile{toc}{\contentsline {subsection}{\numberline {5.10.1}Detailed Description}{28}{subsection.5.10.1}}
\@writefile{toc}{\contentsline {subsection}{\numberline {5.10.2}Constructor \& Destructor Documentation}{28}{subsection.5.10.2}}
\newlabel{classGridVector_ad4d75559342604a52d745a24639d042f}{{5}{28}{Class Documentation}{subsection.5.10.2}{}}
\@writefile{toc}{\contentsline {subsubsection}{\numberline {5.10.2.1}GridVector()\hspace  {0.1cm}{\relax \fontsize  {8}{9.5}\selectfont  \abovedisplayskip 6\p@ plus2\p@ minus4\p@ \abovedisplayshortskip \z@ plus\p@ \belowdisplayshortskip 3\p@ plus\p@ minus2\p@ \def \leftmargin \leftmargini \parsep 4\p@ plus2\p@ minus\p@ \topsep 8\p@ plus2\p@ minus4\p@ \itemsep 4\p@ plus2\p@ minus\p@ {\leftmargin \leftmargini \topsep 3\p@ plus\p@ minus\p@ \parsep 2\p@ plus\p@ minus\p@ \itemsep \parsep }\belowdisplayskip \abovedisplayskip \ttfamily  [1/2]}}{28}{subsubsection.5.10.2.1}}
\newlabel{classGridVector_afe06e702cadcd5cd71d5799663bf1a90}{{5}{28}{Class Documentation}{table.5.25}{}}
\@writefile{toc}{\contentsline {subsubsection}{\numberline {5.10.2.2}GridVector()\hspace  {0.1cm}{\relax \fontsize  {8}{9.5}\selectfont  \abovedisplayskip 6\p@ plus2\p@ minus4\p@ \abovedisplayshortskip \z@ plus\p@ \belowdisplayshortskip 3\p@ plus\p@ minus2\p@ \def \leftmargin \leftmargini \parsep 4\p@ plus2\p@ minus\p@ \topsep 8\p@ plus2\p@ minus4\p@ \itemsep 4\p@ plus2\p@ minus\p@ {\leftmargin \leftmargini \topsep 3\p@ plus\p@ minus\p@ \parsep 2\p@ plus\p@ minus\p@ \itemsep \parsep }\belowdisplayskip \abovedisplayskip \ttfamily  [2/2]}}{28}{subsubsection.5.10.2.2}}
\@writefile{toc}{\contentsline {section}{\numberline {5.11}Heat\discretionary {\unhbox \voidb@x \hbox {\relax \fontsize  {7}{8}\selectfont  $\leftarrow \joinrel  \rhook $}}{}{}Load Class Reference}{28}{section.5.11}}
\newlabel{classHeatLoad}{{5}{28}{Class Documentation}{section.5.11}{}}
\newlabel{classHeatLoad_a607096e5b0398dde7a5bb728561942f7}{{5}{28}{Class Documentation}{section*.29}{}}
\newlabel{classHeatLoad_a74194fb09ea341267e78fafdabeb5560}{{5}{29}{Class Documentation}{section*.30}{}}
\newlabel{classHeatLoad_a8682f8f7fa1ea3f92d12d44eda590951}{{5}{29}{Class Documentation}{section*.30}{}}
\newlabel{classHeatLoad_a7000dca665e583d7d6c3d8a0219c1c3b}{{5}{29}{Class Documentation}{section*.30}{}}
\newlabel{classHeatLoad_a9ac4049dc5fe6d49e73b1feca5d42937}{{5}{29}{Class Documentation}{section*.30}{}}
\newlabel{classHeatLoad_a7acf172f0eb7b418d730c2e8796e9fe9}{{5}{29}{Class Documentation}{section*.30}{}}
\newlabel{classHeatLoad_a1566fcd5c063242388557acf9ddf1466}{{5}{29}{Class Documentation}{section*.30}{}}
\newlabel{classHeatLoad_ae6e519a6fd607889c7573df2cd7cbad2}{{5}{29}{Class Documentation}{section*.30}{}}
\@writefile{toc}{\contentsline {section}{\numberline {5.12}H\discretionary {\unhbox \voidb@x \hbox {\relax \fontsize  {7}{8}\selectfont  $\leftarrow \joinrel  \rhook $}}{}{}J\discretionary {\unhbox \voidb@x \hbox {\relax \fontsize  {7}{8}\selectfont  $\leftarrow \joinrel  \rhook $}}{}{}W\discretionary {\unhbox \voidb@x \hbox {\relax \fontsize  {7}{8}\selectfont  $\leftarrow \joinrel  \rhook $}}{}{}E\discretionary {\unhbox \voidb@x \hbox {\relax \fontsize  {7}{8}\selectfont  $\leftarrow \joinrel  \rhook $}}{}{}N\discretionary {\unhbox \voidb@x \hbox {\relax \fontsize  {7}{8}\selectfont  $\leftarrow \joinrel  \rhook $}}{}{}O\discretionary {\unhbox \voidb@x \hbox {\relax \fontsize  {7}{8}\selectfont  $\leftarrow \joinrel  \rhook $}}{}{}Stencil Class Reference}{29}{section.5.12}}
\newlabel{classHJWENOStencil}{{5}{29}{Class Documentation}{section.5.12}{}}
\newlabel{classStencil_a552d41f958cb81ffb5f8488227ba1366}{{5}{30}{Class Documentation}{section*.33}{}}
\newlabel{classStencil_a3585100dcee2614b7d3ec8e887c5e747}{{5}{30}{Class Documentation}{section*.33}{}}
\newlabel{classStencil_aff48ece636fe7587ddc6a070023d022d}{{5}{30}{Class Documentation}{section*.33}{}}
\newlabel{classStencil_a7179e07b59a019c20aa5325f89358968}{{5}{30}{Class Documentation}{section*.33}{}}
\newlabel{classStencil_a0f9eb821fd1d3e8803fd49c5a9162c6f}{{5}{30}{Class Documentation}{section*.33}{}}
\newlabel{classStencil_a1ced82864ba101ee13b6f1dc084bacb4}{{5}{30}{Class Documentation}{section*.33}{}}
\newlabel{classStencil_a59a3691a59b075cfe252ae5a70fcbc56}{{5}{30}{Class Documentation}{section*.33}{}}
\newlabel{classStencil_a1a5d705eb304aa539f37b1dae2a4e4e0}{{5}{30}{Class Documentation}{section*.33}{}}
\newlabel{classHJWENOStencil_ab1c66d5dd368f522a81df1026f970118}{{5}{30}{Class Documentation}{section*.35}{}}
\@writefile{toc}{\contentsline {subsection}{\numberline {5.12.1}Detailed Description}{30}{subsection.5.12.1}}
\@writefile{toc}{\contentsline {subsection}{\numberline {5.12.2}Constructor \& Destructor Documentation}{30}{subsection.5.12.2}}
\newlabel{classHJWENOStencil_a4683bbf8b404f2993c196a24e25633ba}{{5}{30}{Class Documentation}{subsection.5.12.2}{}}
\@writefile{toc}{\contentsline {subsubsection}{\numberline {5.12.2.1}HJWENOStencil()}{30}{subsubsection.5.12.2.1}}
\gdef \LT@xxvii {\LT@entry 
    {3}{36.81165pt}\LT@entry 
    {3}{168.09631pt}}
\gdef \LT@xxviii {\LT@entry 
    {3}{36.80263pt}\LT@entry 
    {3}{371.71648pt}}
\gdef \LT@xxix {\LT@entry 
    {3}{30.79974pt}\LT@entry 
    {3}{305.95494pt}}
\@writefile{toc}{\contentsline {subsection}{\numberline {5.12.3}Member Function Documentation}{31}{subsection.5.12.3}}
\newlabel{classStencil_af4987858c074fc6c8f4a0c4209d207d3}{{5}{31}{Class Documentation}{subsection.5.12.3}{}}
\@writefile{toc}{\contentsline {subsubsection}{\numberline {5.12.3.1}CapIndices()}{31}{subsubsection.5.12.3.1}}
\newlabel{classStencil_a5898c31a7bceb0d9448d0ad1528754b2}{{5}{31}{Class Documentation}{table.5.28}{}}
\@writefile{toc}{\contentsline {subsubsection}{\numberline {5.12.3.2}GetValue()\hspace  {0.1cm}{\relax \fontsize  {8}{9.5}\selectfont  \abovedisplayskip 6\p@ plus2\p@ minus4\p@ \abovedisplayshortskip \z@ plus\p@ \belowdisplayshortskip 3\p@ plus\p@ minus2\p@ \def \leftmargin \leftmargini \parsep 4\p@ plus2\p@ minus\p@ \topsep 8\p@ plus2\p@ minus4\p@ \itemsep 4\p@ plus2\p@ minus\p@ {\leftmargin \leftmargini \topsep 3\p@ plus\p@ minus\p@ \parsep 2\p@ plus\p@ minus\p@ \itemsep \parsep }\belowdisplayskip \abovedisplayskip \ttfamily  [1/2]}}{31}{subsubsection.5.12.3.2}}
\gdef \LT@xxx {\LT@entry 
    {3}{56.32309pt}\LT@entry 
    {3}{305.95494pt}}
\gdef \LT@xxxi {\LT@entry 
    {3}{54.58627pt}\LT@entry 
    {3}{169.82474pt}}
\newlabel{classStencil_a10cbabe1d3f26f490e67236edb01c292}{{5}{32}{Class Documentation}{table.5.29}{}}
\@writefile{toc}{\contentsline {subsubsection}{\numberline {5.12.3.3}GetValue()\hspace  {0.1cm}{\relax \fontsize  {8}{9.5}\selectfont  \abovedisplayskip 6\p@ plus2\p@ minus4\p@ \abovedisplayshortskip \z@ plus\p@ \belowdisplayshortskip 3\p@ plus\p@ minus2\p@ \def \leftmargin \leftmargini \parsep 4\p@ plus2\p@ minus\p@ \topsep 8\p@ plus2\p@ minus4\p@ \itemsep 4\p@ plus2\p@ minus\p@ {\leftmargin \leftmargini \topsep 3\p@ plus\p@ minus\p@ \parsep 2\p@ plus\p@ minus\p@ \itemsep \parsep }\belowdisplayskip \abovedisplayskip \ttfamily  [2/2]}}{32}{subsubsection.5.12.3.3}}
\newlabel{classHJWENOStencil_a07df257b099a798db4c91c19b9e8cbba}{{5}{32}{Class Documentation}{table.5.30}{}}
\@writefile{toc}{\contentsline {subsubsection}{\numberline {5.12.3.4}GradValue()}{32}{subsubsection.5.12.3.4}}
\newlabel{classHJWENOStencil_afb0b5daba3da3bed00b3921b18ef1a5e}{{5}{32}{Class Documentation}{table.5.31}{}}
\@writefile{toc}{\contentsline {subsubsection}{\numberline {5.12.3.5}InterpolateGrad()}{32}{subsubsection.5.12.3.5}}
\gdef \LT@xxxii {\LT@entry 
    {3}{17.29996pt}\LT@entry 
    {3}{122.95377pt}}
\gdef \LT@xxxiii {\LT@entry 
    {3}{30.79974pt}\LT@entry 
    {3}{305.95494pt}}
\newlabel{classStencil_a241ef282bca51f434ccdbb89be8d1127}{{5}{33}{Class Documentation}{table.5.32}{}}
\@writefile{toc}{\contentsline {subsubsection}{\numberline {5.12.3.6}IsInBounds()}{33}{subsubsection.5.12.3.6}}
\@writefile{toc}{\contentsline {section}{\numberline {5.13}Initialize\discretionary {\unhbox \voidb@x \hbox {\relax \fontsize  {7}{8}\selectfont  $\leftarrow \joinrel  \rhook $}}{}{}Opt Class Reference}{33}{section.5.13}}
\newlabel{classInitializeOpt}{{5}{33}{Class Documentation}{section.5.13}{}}
\newlabel{classInitializeOpt_ac5daf837b552cc5fea1f843ecfc4ff45}{{5}{33}{Class Documentation}{section*.36}{}}
\newlabel{classInitializeOpt_a958c5b6f971edb09fffc2137a2f7f01e}{{5}{33}{Class Documentation}{section*.36}{}}
\newlabel{classInitializeOpt_a67d8a38bc1881b5c20cc77b8153d1c6c}{{5}{33}{Class Documentation}{section*.37}{}}
\newlabel{classInitializeOpt_a16c25b699f8e53e2b20bfb1652cd833e}{{5}{33}{Class Documentation}{section*.37}{}}
\newlabel{classInitializeOpt_a9d4d895f9f450f396754529abda1f623}{{5}{33}{Class Documentation}{section*.37}{}}
\newlabel{classInitializeOpt_a494b53f07674948c56cbf274395314a0}{{5}{33}{Class Documentation}{section*.37}{}}
\newlabel{classInitializeOpt_aa6d79938188ea29e87f4e3470e0218ce}{{5}{33}{Class Documentation}{section*.37}{}}
\newlabel{classInitializeOpt_aeb41ee60b2c8b4697d7c2062593d67c8}{{5}{34}{Class Documentation}{section*.37}{}}
\newlabel{classInitializeOpt_a56080deab76e20d31b431356675300f2}{{5}{34}{Class Documentation}{section*.37}{}}
\newlabel{classInitializeOpt_abb7125b6e12a42f3104e901514b7377c}{{5}{34}{Class Documentation}{section*.37}{}}
\newlabel{classInitializeOpt_a0656b1b1e5dd3d619cf81a17c928f556}{{5}{34}{Class Documentation}{section*.37}{}}
\newlabel{classInitializeOpt_a3331e55490881a39cc8079890ffbcdca}{{5}{34}{Class Documentation}{section*.37}{}}
\newlabel{classInitializeOpt_ae93c1584d12827ce5c5e2b3086614afc}{{5}{34}{Class Documentation}{section*.37}{}}
\newlabel{classInitializeOpt_a0052c3feaccfa83cf65d9d40c83544ea}{{5}{34}{Class Documentation}{section*.37}{}}
\newlabel{classInitializeOpt_ac9f132aba8d03917b9f0ed6655392136}{{5}{34}{Class Documentation}{section*.37}{}}
\newlabel{classInitializeOpt_a8a1279d889286cefa2dbc5b5dadf6dbc}{{5}{34}{Class Documentation}{section*.37}{}}
\newlabel{classInitializeOpt_a25c2270af2200f6bc77d0c5520928ff2}{{5}{34}{Class Documentation}{section*.37}{}}
\newlabel{classInitializeOpt_ac04296ccfec3284db14264c66f9a83bb}{{5}{34}{Class Documentation}{section*.37}{}}
\newlabel{classInitializeOpt_abe57f5d5d5496dbee4ab0d082f23f57a}{{5}{34}{Class Documentation}{section*.37}{}}
\newlabel{classInitializeOpt_a53f6cfd2d9e8f5c0bef2f7bf80f70910}{{5}{34}{Class Documentation}{section*.37}{}}
\newlabel{classInitializeOpt_a36247db6a3957b44077ca2a17a7b1160}{{5}{34}{Class Documentation}{section*.37}{}}
\newlabel{classInitializeOpt_a672f4815351eafbc0fdc8c978544d785}{{5}{34}{Class Documentation}{section*.37}{}}
\newlabel{classInitializeOpt_afbe128694b33ab023b8e3c6ef53e50df}{{5}{34}{Class Documentation}{section*.37}{}}
\newlabel{classInitializeOpt_a995d5fe5d4a25d1ffeb1fffe187492c5}{{5}{34}{Class Documentation}{section*.37}{}}
\@writefile{toc}{\contentsline {section}{\numberline {5.14}Level\discretionary {\unhbox \voidb@x \hbox {\relax \fontsize  {7}{8}\selectfont  $\leftarrow \joinrel  \rhook $}}{}{}Set3D Class Reference}{34}{section.5.14}}
\newlabel{classLevelSet3D}{{5}{34}{Class Documentation}{section.5.14}{}}
\newlabel{classLevelSet3D_a3b27ebbcb2274e61d598fa1246fd7b69}{{5}{34}{Class Documentation}{section*.38}{}}
\newlabel{classLevelSet3D_a9d4f4389961740b83aa2f51ddd969ad1}{{5}{34}{Class Documentation}{section*.38}{}}
\newlabel{classLevelSet3D_a64a85521db44faff0bc582c19de7629a}{{5}{34}{Class Documentation}{section*.38}{}}
\newlabel{classLevelSet3D_a9d72fb7ebf12be0726c9a8af21e53f65}{{5}{34}{Class Documentation}{section*.38}{}}
\newlabel{classLevelSet3D_a5753a390234b75b9b1d8d1a30ed50098}{{5}{35}{Class Documentation}{section*.38}{}}
\newlabel{classLevelSet3D_a5487eda5e18578862aacc77d6d251b17}{{5}{35}{Class Documentation}{section*.38}{}}
\newlabel{classLevelSet3D_a2b315f3c991178da6a77610525c59b80}{{5}{35}{Class Documentation}{section*.38}{}}
\newlabel{classLevelSet3D_a5cc977c253a8ae69fe0bea85cf2aa49d}{{5}{35}{Class Documentation}{section*.39}{}}
\newlabel{classLevelSet3D_ab11e5d6af1901d42c70f0395e462ef34}{{5}{35}{Class Documentation}{section*.39}{}}
\newlabel{classLevelSet3D_abae9d1d5facf3643b4a237387231b1d7}{{5}{35}{Class Documentation}{section*.39}{}}
\newlabel{classLevelSet3D_abf8fc9a302d104ad5aca8493981cf57d}{{5}{35}{Class Documentation}{section*.39}{}}
\newlabel{classLevelSet3D_a964fcfef75e0435ab421581a57327ce8}{{5}{35}{Class Documentation}{section*.39}{}}
\newlabel{classLevelSet3D_aabea5c72b0e52a654ee7a3cac71983e3}{{5}{35}{Class Documentation}{section*.39}{}}
\newlabel{classLevelSet3D_a2336c4ffa05812471a831ba9f6d3b992}{{5}{35}{Class Documentation}{section*.39}{}}
\newlabel{classLevelSet3D_a6a6e118d6ac9fa8dbd1089ad75aa64ac}{{5}{35}{Class Documentation}{section*.39}{}}
\newlabel{classLevelSet3D_a93e5588d0720b6184cb9e3598a82a7ad}{{5}{35}{Class Documentation}{section*.39}{}}
\newlabel{classLevelSet3D_a422ebe17856cae1c1668c029279f0e0b}{{5}{35}{Class Documentation}{section*.39}{}}
\newlabel{classLevelSet3D_ad69131542558e64b08f72545a18f78f5}{{5}{35}{Class Documentation}{section*.39}{}}
\newlabel{classLevelSet3D_a8b09be363883bbe0fb24849eea0de22f}{{5}{35}{Class Documentation}{section*.39}{}}
\newlabel{classLevelSet3D_aeb7d9d276b085517e3d8c3d69ece033b}{{5}{35}{Class Documentation}{section*.40}{}}
\gdef \LT@xxxiv {\LT@entry 
    {3}{32.8515pt}\LT@entry 
    {3}{101.21887pt}}
\newlabel{classLevelSet3D_ab82dd169a34d34866d2eb989a6fc3048}{{5}{36}{Class Documentation}{section*.40}{}}
\newlabel{classLevelSet3D_ac10d84dddfe61438e83a636ab95963b4}{{5}{36}{Class Documentation}{section*.40}{}}
\newlabel{classLevelSet3D_a94fcb42859a898e49447b93e77866796}{{5}{36}{Class Documentation}{section*.40}{}}
\newlabel{classLevelSet3D_a3c631da7df0096153677697370d6b46d}{{5}{36}{Class Documentation}{section*.40}{}}
\newlabel{classLevelSet3D_aec83009c6a43084ea4728f38b7676983}{{5}{36}{Class Documentation}{section*.41}{}}
\newlabel{classLevelSet3D_aa0e5a04beb4602a3a054d09549262671}{{5}{36}{Class Documentation}{section*.41}{}}
\newlabel{classLevelSet3D_aea8fc1b268bb40b6411e5c9fbb1b898a}{{5}{36}{Class Documentation}{section*.41}{}}
\newlabel{classLevelSet3D_a5b4dbf58120f2eb7698ecdab5c903ed3}{{5}{36}{Class Documentation}{section*.41}{}}
\newlabel{classLevelSet3D_a4f4dc7fdf69872d999f950d21046aa8c}{{5}{36}{Class Documentation}{section*.41}{}}
\@writefile{toc}{\contentsline {subsection}{\numberline {5.14.1}Detailed Description}{36}{subsection.5.14.1}}
\@writefile{toc}{\contentsline {subsection}{\numberline {5.14.2}Constructor \& Destructor Documentation}{36}{subsection.5.14.2}}
\newlabel{classLevelSet3D_a13d41b7a99800806ca576079f49bf047}{{5}{36}{Class Documentation}{subsection.5.14.2}{}}
\@writefile{toc}{\contentsline {subsubsection}{\numberline {5.14.2.1}LevelSet3D()}{36}{subsubsection.5.14.2.1}}
\gdef \LT@xxxv {\LT@entry 
    {3}{56.32321pt}\LT@entry 
    {1}{45.88718pt}}
\gdef \LT@xxxvi {\LT@entry 
    {3}{48.17844pt}\LT@entry 
    {1}{45.88718pt}}
\gdef \LT@xxxvii {\LT@entry 
    {3}{37.21657pt}\LT@entry 
    {1}{45.88718pt}}
\@writefile{toc}{\contentsline {subsection}{\numberline {5.14.3}Member Function Documentation}{37}{subsection.5.14.3}}
\newlabel{classLevelSet3D_a460f9bfa0aaf48d3872d9a38377f9905}{{5}{37}{Class Documentation}{subsection.5.14.3}{}}
\@writefile{toc}{\contentsline {subsubsection}{\numberline {5.14.3.1}AdjustForCFL()}{37}{subsubsection.5.14.3.1}}
\newlabel{classLevelSet3D_a308a607d0a7e35d78474a2b277e2663f}{{5}{37}{Class Documentation}{subsubsection.5.14.3.1}{}}
\@writefile{toc}{\contentsline {subsubsection}{\numberline {5.14.3.2}ComputeAggregationSensitivities()}{37}{subsubsection.5.14.3.2}}
\newlabel{classLevelSet3D_a11e84e635e95337d6c31d61afc480f29}{{5}{37}{Class Documentation}{table.5.37}{}}
\gdef \LT@xxxviii {\LT@entry 
    {3}{76.3209pt}\LT@entry 
    {3}{164.97382pt}}
\gdef \LT@xxxix {\LT@entry 
    {3}{41.81543pt}\LT@entry 
    {1}{45.88718pt}}
\gdef \LT@xl {\LT@entry 
    {3}{69.55293pt}\LT@entry 
    {1}{45.88718pt}}
\gdef \LT@xli {\LT@entry 
    {3}{56.32321pt}\LT@entry 
    {1}{45.88718pt}}
\gdef \LT@xlii {\LT@entry 
    {3}{37.21657pt}\LT@entry 
    {1}{45.88718pt}}
\@writefile{toc}{\contentsline {subsubsection}{\numberline {5.14.3.3}ComputeElementalVolFracs()}{38}{subsubsection.5.14.3.3}}
\newlabel{classLevelSet3D_a01a0312b3f275a523c21d0f459011956}{{5}{38}{Class Documentation}{table.5.38}{}}
\@writefile{toc}{\contentsline {subsubsection}{\numberline {5.14.3.4}DifferntiateAggVf()}{38}{subsubsection.5.14.3.4}}
\gdef \LT@xliii {\LT@entry 
    {3}{17.29996pt}\LT@entry 
    {3}{139.46794pt}}
\gdef \LT@xliv {\LT@entry 
    {3}{34.03969pt}\LT@entry 
    {3}{375.45174pt}}
\newlabel{classLevelSet3D_a1f522868a013930838e5a50a54985da0}{{5}{39}{Class Documentation}{table.5.42}{}}
\@writefile{toc}{\contentsline {subsubsection}{\numberline {5.14.3.5}GridPtToIndex()}{39}{subsubsection.5.14.3.5}}
\newlabel{classLevelSet3D_a626a64306f988b6082bfa826dc5190e4}{{5}{39}{Class Documentation}{table.5.43}{}}
\@writefile{toc}{\contentsline {subsubsection}{\numberline {5.14.3.6}IndexToGridPt()}{39}{subsubsection.5.14.3.6}}
\newlabel{classLevelSet3D_adfbb54a06f86b1d2791bac12554c4a08}{{5}{39}{Class Documentation}{table.5.44}{}}
\@writefile{toc}{\contentsline {subsubsection}{\numberline {5.14.3.7}IsInBounds()}{39}{subsubsection.5.14.3.7}}
\gdef \LT@xlv {\LT@entry 
    {3}{43.54356pt}\LT@entry 
    {3}{139.46794pt}}
\gdef \LT@xlvi {\LT@entry 
    {3}{36.5417pt}\LT@entry 
    {3}{89.55537pt}}
\gdef \LT@xlvii {\LT@entry 
    {3}{61.55222pt}\LT@entry 
    {3}{241.02187pt}}
\gdef \LT@xlviii {\LT@entry 
    {3}{59.31137pt}\LT@entry 
    {3}{211.59238pt}}
\newlabel{classLevelSet3D_a90b52435891e6ce63d52dab8d3fc90d7}{{5}{41}{Class Documentation}{table.5.45}{}}
\@writefile{toc}{\contentsline {subsubsection}{\numberline {5.14.3.8}SetGridDimensions()}{41}{subsubsection.5.14.3.8}}
\newlabel{classLevelSet3D_a67cf4e64d6967ca8737b9da1dc3bf1af}{{5}{41}{Class Documentation}{table.5.46}{}}
\@writefile{toc}{\contentsline {subsubsection}{\numberline {5.14.3.9}SmoothPhi()}{41}{subsubsection.5.14.3.9}}
\newlabel{classLevelSet3D_aa7e587b334831bfb09e09f6293936ea4}{{5}{41}{Class Documentation}{table.5.47}{}}
\@writefile{toc}{\contentsline {subsubsection}{\numberline {5.14.3.10}SolveEikonal()}{41}{subsubsection.5.14.3.10}}
\gdef \LT@xlix {\LT@entry 
    {3}{24.30182pt}\LT@entry 
    {3}{126.00429pt}}
\gdef \LT@l {\LT@entry 
    {3}{51.81435pt}\LT@entry 
    {3}{184.21536pt}}
\newlabel{classLevelSet3D_ae8a6fae04feeacf6c7b9bea18cc6c42f}{{5}{42}{Class Documentation}{table.5.48}{}}
\@writefile{toc}{\contentsline {subsubsection}{\numberline {5.14.3.11}UpdateVelocity()}{42}{subsubsection.5.14.3.11}}
\newlabel{classLevelSet3D_ad146b94e88e4e53aef6fa7018f4f426e}{{5}{42}{Class Documentation}{table.5.49}{}}
\@writefile{toc}{\contentsline {subsubsection}{\numberline {5.14.3.12}WriteSD()}{42}{subsubsection.5.14.3.12}}
\@writefile{toc}{\contentsline {subsection}{\numberline {5.14.4}Member Data Documentation}{42}{subsection.5.14.4}}
\newlabel{classLevelSet3D_a6fdf56aab865054a3dcb113b6bcf360d}{{5}{42}{Class Documentation}{subsection.5.14.4}{}}
\@writefile{toc}{\contentsline {subsubsection}{\numberline {5.14.4.1}volume}{42}{subsubsection.5.14.4.1}}
\@writefile{toc}{\contentsline {section}{\numberline {5.15}Linear\discretionary {\unhbox \voidb@x \hbox {\relax \fontsize  {7}{8}\selectfont  $\leftarrow \joinrel  \rhook $}}{}{}Elasticity Class Reference}{43}{section.5.15}}
\newlabel{classLinearElasticity}{{5}{43}{Class Documentation}{section.5.15}{}}
\newlabel{classLinearElasticity_a3835298225674adfc3e774c4fca2b731}{{5}{43}{Class Documentation}{section*.42}{}}
\newlabel{classLinearElasticity_ac5bedbbf7c2e3c1c28c693e53b95eb3e}{{5}{43}{Class Documentation}{section*.42}{}}
\newlabel{classLinearElasticity_ad9bb459b0fffda5399f8deb217f2675c}{{5}{43}{Class Documentation}{section*.42}{}}
\newlabel{classLinearElasticity_a606f362d5cef97dd1c8656661f797143}{{5}{43}{Class Documentation}{section*.42}{}}
\newlabel{classLinearElasticity_af8d7ce77336ea8ba6cbf1ee636e1910e}{{5}{43}{Class Documentation}{section*.42}{}}
\newlabel{classLinearElasticity_a6965d132ed6589d89a88edf31d81afc2}{{5}{43}{Class Documentation}{section*.42}{}}
\newlabel{classLinearElasticity_ae7f17d2e33ff82f37241e3fd5a846f82}{{5}{43}{Class Documentation}{section*.42}{}}
\newlabel{classLinearElasticity_aa9cfc3a8c64e1ff0e7f53cf18b127aa7}{{5}{43}{Class Documentation}{section*.42}{}}
\newlabel{classLinearElasticity_a1bff3bb1b8861b36e0eed029ded29b65}{{5}{43}{Class Documentation}{section*.42}{}}
\newlabel{classLinearElasticity_a872e5646147d1a7add9a5aba6a0ba146}{{5}{43}{Class Documentation}{section*.42}{}}
\newlabel{classLinearElasticity_a16f86c090fb22de8e6ea532033dd9662}{{5}{43}{Class Documentation}{section*.42}{}}
\newlabel{classLinearElasticity_ae60e27e1e95c1d4d7853685620bc2e23}{{5}{43}{Class Documentation}{section*.42}{}}
\newlabel{classLinearElasticity_a901d450823234e4e4d18b65255c50301}{{5}{43}{Class Documentation}{section*.43}{}}
\newlabel{classLinearElasticity_aeeffb0da32baa97e2609fe522ffeec79}{{5}{43}{Class Documentation}{section*.43}{}}
\newlabel{classLinearElasticity_abc2bd3657184cccdac431c9212607337}{{5}{43}{Class Documentation}{section*.43}{}}
\newlabel{classLinearElasticity_a4b6e5a6dbbb91df68ab3c8b2319adf3e}{{5}{43}{Class Documentation}{section*.43}{}}
\newlabel{classLinearElasticity_af59902631601a44f827f16f3848f45cb}{{5}{43}{Class Documentation}{section*.43}{}}
\newlabel{classLinearElasticity_a1037266a69a9c65f7ec8b73e56ef54f4}{{5}{43}{Class Documentation}{section*.43}{}}
\newlabel{classLinearElasticity_ae2dd83cbf2f213aa3e9d99f409a807f9}{{5}{43}{Class Documentation}{section*.43}{}}
\newlabel{classLinearElasticity_a0ac9ab8d1af3409dda86119100743012}{{5}{43}{Class Documentation}{section*.43}{}}
\newlabel{classLinearElasticity_a0a41c602b785fe2870269685938f8201}{{5}{43}{Class Documentation}{section*.43}{}}
\newlabel{classLinearElasticity_af4123629ce995ae5c87c36b260c63de6}{{5}{43}{Class Documentation}{section*.43}{}}
\newlabel{classLinearElasticity_add4e6b67bc4b1a5b74222e714c442505}{{5}{43}{Class Documentation}{section*.43}{}}
\newlabel{classLinearElasticity_a5fb0cb9125944c125534875cb3c6cf77}{{5}{43}{Class Documentation}{section*.44}{}}
\newlabel{classLinearElasticity_ac32b6a3322305cb926688847ee58dde1}{{5}{43}{Class Documentation}{section*.44}{}}
\newlabel{classLinearElasticity_a7f6330c3154932fe10bf95316a6590b8}{{5}{43}{Class Documentation}{section*.44}{}}
\newlabel{classLinearElasticity_ab094ed2e626607d28ad82e1744e033aa}{{5}{43}{Class Documentation}{section*.44}{}}
\newlabel{classLinearElasticity_ab6b6a8d6fcd9a83963ae0e93003b3d9a}{{5}{43}{Class Documentation}{section*.44}{}}
\newlabel{classLinearElasticity_abf5c85fd435baf191e0e1aed2ffcb691}{{5}{43}{Class Documentation}{section*.44}{}}
\newlabel{classLinearElasticity_a0bfd1379fb7a7f272dbdc53e43de8e1c}{{5}{43}{Class Documentation}{section*.44}{}}
\newlabel{classLinearElasticity_a5f110660dcad12cfc1f2002f2de922fd}{{5}{43}{Class Documentation}{section*.44}{}}
\newlabel{classLinearElasticity_ace8e5695361dd94d6b9b702ef5d21887}{{5}{43}{Class Documentation}{section*.44}{}}
\newlabel{classLinearElasticity_a290d8a410b788a68abf9811a0f040f58}{{5}{43}{Class Documentation}{section*.44}{}}
\newlabel{classLinearElasticity_a82365643068f8d748c3370fb29e2c284}{{5}{44}{Class Documentation}{section*.45}{}}
\newlabel{classLinearElasticity_afa5fbe371406c03e43884b0def956db4}{{5}{44}{Class Documentation}{section*.45}{}}
\newlabel{classLinearElasticity_abd77430d4b2e49a54d525b0d306ae068}{{5}{44}{Class Documentation}{section*.45}{}}
\newlabel{classLinearElasticity_a5fee5ee2450cea9b1e672a144fc5e42c}{{5}{44}{Class Documentation}{section*.45}{}}
\newlabel{classLinearElasticity_aee41dc78879dc4cd35901e287b06bdac}{{5}{44}{Class Documentation}{section*.45}{}}
\newlabel{classLinearElasticity_a30c5db021191e10dfb4fa319218c4522}{{5}{44}{Class Documentation}{section*.45}{}}
\newlabel{classLinearElasticity_a6735febe699d977802c44005877c8aa5}{{5}{44}{Class Documentation}{section*.45}{}}
\newlabel{classLinearElasticity_a57e7da64368947d9ccb88b2b791d726e}{{5}{44}{Class Documentation}{section*.45}{}}
\@writefile{toc}{\contentsline {section}{\numberline {5.16}Min\discretionary {\unhbox \voidb@x \hbox {\relax \fontsize  {7}{8}\selectfont  $\leftarrow \joinrel  \rhook $}}{}{}Stencil Class Reference}{44}{section.5.16}}
\newlabel{classMinStencil}{{5}{44}{Class Documentation}{section.5.16}{}}
\gdef \LT@li {\LT@entry 
    {3}{58.32104pt}\LT@entry 
    {3}{213.25754pt}}
\newlabel{classMinStencil_af98873554ee152a9776752faf04e194f}{{5}{45}{Class Documentation}{section*.48}{}}
\newlabel{classMinStencil_a1cb8702d9f79425adc49a564ec2b5a8e}{{5}{45}{Class Documentation}{section*.48}{}}
\newlabel{classMinStencil_af198e4053c34a1caf7bd309817507e11}{{5}{45}{Class Documentation}{section*.48}{}}
\newlabel{classStencil_a552d41f958cb81ffb5f8488227ba1366}{{5}{45}{Class Documentation}{section*.48}{}}
\newlabel{classStencil_a3585100dcee2614b7d3ec8e887c5e747}{{5}{45}{Class Documentation}{section*.48}{}}
\newlabel{classStencil_aff48ece636fe7587ddc6a070023d022d}{{5}{45}{Class Documentation}{section*.48}{}}
\newlabel{classStencil_a7179e07b59a019c20aa5325f89358968}{{5}{45}{Class Documentation}{section*.48}{}}
\newlabel{classStencil_a0f9eb821fd1d3e8803fd49c5a9162c6f}{{5}{45}{Class Documentation}{section*.48}{}}
\newlabel{classStencil_a1ced82864ba101ee13b6f1dc084bacb4}{{5}{45}{Class Documentation}{section*.48}{}}
\newlabel{classStencil_a59a3691a59b075cfe252ae5a70fcbc56}{{5}{45}{Class Documentation}{section*.48}{}}
\newlabel{classStencil_a1a5d705eb304aa539f37b1dae2a4e4e0}{{5}{45}{Class Documentation}{section*.48}{}}
\@writefile{toc}{\contentsline {subsection}{\numberline {5.16.1}Detailed Description}{45}{subsection.5.16.1}}
\@writefile{toc}{\contentsline {subsection}{\numberline {5.16.2}Constructor \& Destructor Documentation}{45}{subsection.5.16.2}}
\newlabel{classMinStencil_a94da5f4884d5eb05562e7d6438b856fa}{{5}{45}{Class Documentation}{subsection.5.16.2}{}}
\@writefile{toc}{\contentsline {subsubsection}{\numberline {5.16.2.1}MinStencil()}{45}{subsubsection.5.16.2.1}}
\gdef \LT@lii {\LT@entry 
    {3}{36.80263pt}\LT@entry 
    {3}{371.71648pt}}
\gdef \LT@liii {\LT@entry 
    {3}{30.79974pt}\LT@entry 
    {3}{305.95494pt}}
\@writefile{toc}{\contentsline {subsection}{\numberline {5.16.3}Member Function Documentation}{46}{subsection.5.16.3}}
\newlabel{classStencil_af4987858c074fc6c8f4a0c4209d207d3}{{5}{46}{Class Documentation}{subsection.5.16.3}{}}
\@writefile{toc}{\contentsline {subsubsection}{\numberline {5.16.3.1}CapIndices()}{46}{subsubsection.5.16.3.1}}
\newlabel{classStencil_a5898c31a7bceb0d9448d0ad1528754b2}{{5}{46}{Class Documentation}{table.5.52}{}}
\@writefile{toc}{\contentsline {subsubsection}{\numberline {5.16.3.2}GetValue()\hspace  {0.1cm}{\relax \fontsize  {8}{9.5}\selectfont  \abovedisplayskip 6\p@ plus2\p@ minus4\p@ \abovedisplayshortskip \z@ plus\p@ \belowdisplayshortskip 3\p@ plus\p@ minus2\p@ \def \leftmargin \leftmargini \parsep 4\p@ plus2\p@ minus\p@ \topsep 8\p@ plus2\p@ minus4\p@ \itemsep 4\p@ plus2\p@ minus\p@ {\leftmargin \leftmargini \topsep 3\p@ plus\p@ minus\p@ \parsep 2\p@ plus\p@ minus\p@ \itemsep \parsep }\belowdisplayskip \abovedisplayskip \ttfamily  [1/2]}}{46}{subsubsection.5.16.3.2}}
\newlabel{classStencil_a10cbabe1d3f26f490e67236edb01c292}{{5}{46}{Class Documentation}{table.5.53}{}}
\@writefile{toc}{\contentsline {subsubsection}{\numberline {5.16.3.3}GetValue()\hspace  {0.1cm}{\relax \fontsize  {8}{9.5}\selectfont  \abovedisplayskip 6\p@ plus2\p@ minus4\p@ \abovedisplayshortskip \z@ plus\p@ \belowdisplayshortskip 3\p@ plus\p@ minus2\p@ \def \leftmargin \leftmargini \parsep 4\p@ plus2\p@ minus\p@ \topsep 8\p@ plus2\p@ minus4\p@ \itemsep 4\p@ plus2\p@ minus\p@ {\leftmargin \leftmargini \topsep 3\p@ plus\p@ minus\p@ \parsep 2\p@ plus\p@ minus\p@ \itemsep \parsep }\belowdisplayskip \abovedisplayskip \ttfamily  [2/2]}}{46}{subsubsection.5.16.3.3}}
\gdef \LT@liv {\LT@entry 
    {3}{56.32309pt}\LT@entry 
    {3}{305.95494pt}}
\gdef \LT@lv {\LT@entry 
    {3}{30.79974pt}\LT@entry 
    {3}{305.95494pt}}
\gdef \LT@lvi {\LT@entry 
    {3}{46.81032pt}\LT@entry 
    {3}{202.69208pt}}
\newlabel{classStencil_a241ef282bca51f434ccdbb89be8d1127}{{5}{47}{Class Documentation}{table.5.54}{}}
\@writefile{toc}{\contentsline {subsubsection}{\numberline {5.16.3.4}IsInBounds()}{47}{subsubsection.5.16.3.4}}
\newlabel{classMinStencil_a477cbd6136a48a7217c89792dd97d356}{{5}{47}{Class Documentation}{table.5.55}{}}
\@writefile{toc}{\contentsline {subsubsection}{\numberline {5.16.3.5}MinValue()}{47}{subsubsection.5.16.3.5}}
\@writefile{toc}{\contentsline {section}{\numberline {5.17}Moment\discretionary {\unhbox \voidb@x \hbox {\relax \fontsize  {7}{8}\selectfont  $\leftarrow \joinrel  \rhook $}}{}{}Line\discretionary {\unhbox \voidb@x \hbox {\relax \fontsize  {7}{8}\selectfont  $\leftarrow \joinrel  \rhook $}}{}{}Segment Class Reference}{47}{section.5.17}}
\newlabel{classMomentLineSegment}{{5}{47}{Class Documentation}{section.5.17}{}}
\newlabel{classMomentLineSegment_a75b458778395c168e54dffd228993999}{{5}{48}{Class Documentation}{section*.49}{}}
\newlabel{classMomentLineSegment_a3c39c645277ca073c7016c0986b18de9}{{5}{48}{Class Documentation}{section*.49}{}}
\newlabel{classMomentLineSegment_ae020dec80729ce368964ff52826b003c}{{5}{48}{Class Documentation}{section*.49}{}}
\newlabel{classMomentLineSegment_a88e644d13c14949a745f7dc66038bed3}{{5}{48}{Class Documentation}{section*.49}{}}
\newlabel{classMomentLineSegment_a190450bb31154e740a1bb7b65e5a510c}{{5}{48}{Class Documentation}{section*.49}{}}
\newlabel{classMomentLineSegment_a2dd3836612a1f1033121dd673a38b254}{{5}{48}{Class Documentation}{section*.49}{}}
\newlabel{classMomentLineSegment_aa3358ddb688e1f81c57e4f8fc8255ad8}{{5}{48}{Class Documentation}{section*.50}{}}
\newlabel{classMomentLineSegment_a1d97117015620ebd592445d38d92474a}{{5}{48}{Class Documentation}{section*.50}{}}
\newlabel{classMomentLineSegment_a6a564f54bf8cc43cf6df1059e4d18530}{{5}{48}{Class Documentation}{section*.50}{}}
\@writefile{toc}{\contentsline {subsection}{\numberline {5.17.1}Member Data Documentation}{48}{subsection.5.17.1}}
\newlabel{classMomentLineSegment_ac0a699937ff9b87b4f9a5cb9b7253547}{{5}{48}{Class Documentation}{subsection.5.17.1}{}}
\@writefile{toc}{\contentsline {subsubsection}{\numberline {5.17.1.1}wGauss}{48}{subsubsection.5.17.1.1}}
\newlabel{classMomentLineSegment_a0f8c31b81b93ddade91153d691df8274}{{5}{48}{Class Documentation}{subsubsection.5.17.1.1}{}}
\@writefile{toc}{\contentsline {subsubsection}{\numberline {5.17.1.2}xGauss}{48}{subsubsection.5.17.1.2}}
\@writefile{toc}{\contentsline {section}{\numberline {5.18}Moment\discretionary {\unhbox \voidb@x \hbox {\relax \fontsize  {7}{8}\selectfont  $\leftarrow \joinrel  \rhook $}}{}{}Polygon Class Reference}{49}{section.5.18}}
\newlabel{classMomentPolygon}{{5}{49}{Class Documentation}{section.5.18}{}}
\newlabel{classMomentPolygon_a5c43adf33b0a9007100f52241fec686a}{{5}{49}{Class Documentation}{section*.51}{}}
\newlabel{classMomentPolygon_a0520e2f33f3b688a274fd5f39cdecc40}{{5}{49}{Class Documentation}{section*.51}{}}
\newlabel{classMomentPolygon_a0eb1e7f31b934a8b44f8d8522f659994}{{5}{49}{Class Documentation}{section*.51}{}}
\newlabel{classMomentPolygon_a719d066bc4e8f3f95f6b9081a0a132b2}{{5}{49}{Class Documentation}{section*.51}{}}
\newlabel{classMomentPolygon_a8529aacf06c97fe23c0b444d036acceb}{{5}{49}{Class Documentation}{section*.51}{}}
\newlabel{classMomentPolygon_a495e8002760028058f3f40eb3e020c81}{{5}{49}{Class Documentation}{section*.51}{}}
\newlabel{classMomentPolygon_ac1caa4e102bc871f94a0ff30befb62ea}{{5}{49}{Class Documentation}{section*.51}{}}
\newlabel{classMomentPolygon_ab6c8c57c804e200f84b28bba11d005ea}{{5}{49}{Class Documentation}{section*.51}{}}
\newlabel{classMomentPolygon_a65001bdda6eeef46b4dfaaf0cf34195e}{{5}{49}{Class Documentation}{section*.51}{}}
\newlabel{classMomentPolygon_a2f6832163d1981697a13bdcbbff65de3}{{5}{49}{Class Documentation}{section*.51}{}}
\newlabel{classMomentPolygon_ac3427271cd80d9ecc7b20a6760857820}{{5}{49}{Class Documentation}{section*.51}{}}
\newlabel{classMomentPolygon_aa387487fc2dc9708e6756a28c245179e}{{5}{49}{Class Documentation}{section*.51}{}}
\newlabel{classMomentPolygon_a050e8d5d2b8296f3753a618a5e121bec}{{5}{49}{Class Documentation}{section*.51}{}}
\newlabel{classMomentPolygon_a54107960313473252c34a595d8db8212}{{5}{49}{Class Documentation}{section*.51}{}}
\newlabel{classMomentPolygon_af598c6039c3241c86d8d7c3d690e50e5}{{5}{49}{Class Documentation}{section*.52}{}}
\newlabel{classMomentPolygon_a0289fa142b82cc1c1295571711049034}{{5}{49}{Class Documentation}{section*.52}{}}
\newlabel{classMomentPolygon_aa1468221f299827e467170dcf1134433}{{5}{49}{Class Documentation}{section*.52}{}}
\newlabel{classMomentPolygon_ae625b9de4185a6bddb5a9bde25cf36d8}{{5}{49}{Class Documentation}{section*.52}{}}
\newlabel{classMomentPolygon_a2eda4d30ef5cc916a5ddf4d7017897b4}{{5}{49}{Class Documentation}{section*.52}{}}
\newlabel{classMomentPolygon_a0280ab790694ae71917c9978e24e682e}{{5}{49}{Class Documentation}{section*.52}{}}
\newlabel{classMomentPolygon_aa3e979fee3ec590cbb4883d1dccd824a}{{5}{49}{Class Documentation}{section*.52}{}}
\newlabel{classMomentPolygon_ab743d0b72f0826b699ee82432b10a1cf}{{5}{49}{Class Documentation}{section*.52}{}}
\newlabel{classMomentPolygon_a7ad292658928ca1a635024ab191ec93b}{{5}{49}{Class Documentation}{section*.52}{}}
\newlabel{classMomentPolygon_a0f097a0a1f8a46e342a5dc211917345c}{{5}{49}{Class Documentation}{section*.53}{}}
\newlabel{classMomentPolygon_ac627dc8b096887eca867a8b3d139bb84}{{5}{49}{Class Documentation}{section*.54}{}}
\newlabel{classMomentPolygon_a55f2085eea278b27fc847b17b9282f4b}{{5}{49}{Class Documentation}{section*.54}{}}
\@writefile{toc}{\contentsline {subsection}{\numberline {5.18.1}Member Data Documentation}{50}{subsection.5.18.1}}
\newlabel{classMomentPolygon_a271f6e587887cc32f5620139af2a522a}{{5}{50}{Class Documentation}{subsection.5.18.1}{}}
\@writefile{toc}{\contentsline {subsubsection}{\numberline {5.18.1.1}xGauss}{50}{subsubsection.5.18.1.1}}
\@writefile{toc}{\contentsline {section}{\numberline {5.19}Moment\discretionary {\unhbox \voidb@x \hbox {\relax \fontsize  {7}{8}\selectfont  $\leftarrow \joinrel  \rhook $}}{}{}Quadrature Class Reference}{50}{section.5.19}}
\newlabel{classMomentQuadrature}{{5}{50}{Class Documentation}{section.5.19}{}}
\newlabel{classMomentQuadrature_a7e46cda370d14f751b43e90f87a1b69d}{{5}{50}{Class Documentation}{section*.55}{}}
\newlabel{classMomentQuadrature_ac76ce159f72025b1b9844827576d76fa}{{5}{50}{Class Documentation}{section*.55}{}}
\newlabel{classMomentQuadrature_ab3d088520a8c1d66978c89d4b4f10c11}{{5}{50}{Class Documentation}{section*.55}{}}
\newlabel{classMomentQuadrature_a764ca60e93bbecadcb677fd6b13dcd44}{{5}{50}{Class Documentation}{section*.55}{}}
\newlabel{classMomentQuadrature_a40c136435990b4b93afedfe4b688a61c}{{5}{50}{Class Documentation}{section*.55}{}}
\newlabel{classMomentQuadrature_afbc2473f261d05e207d98a5e04a5e53f}{{5}{50}{Class Documentation}{section*.56}{}}
\newlabel{classMomentQuadrature_a3228469d6bb83415c691f32a4c846e1a}{{5}{50}{Class Documentation}{section*.56}{}}
\newlabel{classMomentQuadrature_ae04bbcaefccd203518c59ec0b80db255}{{5}{50}{Class Documentation}{section*.56}{}}
\newlabel{classMomentQuadrature_a1f52911d2fdab77e799c840d115cdb6e}{{5}{50}{Class Documentation}{section*.56}{}}
\newlabel{classMomentQuadrature_a84c23a8f7317a03ac31cafdd421283a8}{{5}{50}{Class Documentation}{section*.56}{}}
\newlabel{classMomentQuadrature_ab3a5ac622f9b94596114bfdd5535c94f}{{5}{50}{Class Documentation}{section*.56}{}}
\@writefile{toc}{\contentsline {section}{\numberline {5.20}My\discretionary {\unhbox \voidb@x \hbox {\relax \fontsize  {7}{8}\selectfont  $\leftarrow \joinrel  \rhook $}}{}{}Gather Class Reference}{50}{section.5.20}}
\newlabel{classMyGather}{{5}{50}{Class Documentation}{section.5.20}{}}
\newlabel{classMyGather_aa77a5d733a86cb6846bd4349001659f1}{{5}{50}{Class Documentation}{section*.57}{}}
\newlabel{classMyGather_a27cd6f0db16c8636c5e27f87244c712e}{{5}{51}{Class Documentation}{section*.58}{}}
\newlabel{classMyGather_abb84e8640aec671a61ef2bbea535035e}{{5}{51}{Class Documentation}{section*.58}{}}
\newlabel{classMyGather_a58c45ba9c0adfc096232db942c88bc39}{{5}{51}{Class Documentation}{section*.58}{}}
\@writefile{toc}{\contentsline {section}{\numberline {5.21}My\discretionary {\unhbox \voidb@x \hbox {\relax \fontsize  {7}{8}\selectfont  $\leftarrow \joinrel  \rhook $}}{}{}Optimizer Class Reference}{51}{section.5.21}}
\newlabel{classMyOptimizer}{{5}{51}{Class Documentation}{section.5.21}{}}
\newlabel{classMyOptimizer_a76fab4c015b6b61d42ddd4a6bec0dcfa}{{5}{51}{Class Documentation}{section*.60}{}}
\newlabel{classMyOptimizer_a2f228119fc731bb72b7cc83bc205d480}{{5}{51}{Class Documentation}{section*.60}{}}
\newlabel{classMyOptimizer_aba8e1f8f597acbbd1a2d42506602b41c}{{5}{51}{Class Documentation}{section*.60}{}}
\newlabel{classMyOptimizer_a08a23d23efe8a2f40ed1bd292ca49afa}{{5}{51}{Class Documentation}{section*.60}{}}
\newlabel{classMyOptimizer_aaf12c1ea664bfcebcc423f1d70995982}{{5}{51}{Class Documentation}{section*.60}{}}
\newlabel{classMyOptimizer_a41840ccccc17ac645cbaaf3d4f11f801}{{5}{51}{Class Documentation}{section*.60}{}}
\newlabel{classMyOptimizer_a21256170a1a706ad6be430deac6b62a2}{{5}{51}{Class Documentation}{section*.60}{}}
\newlabel{classMyOptimizer_ab758cee45258e5c1e48f1dddae6b0a36}{{5}{51}{Class Documentation}{section*.61}{}}
\newlabel{classMyOptimizer_aeca6b13a78f38018f65a127e447c8bff}{{5}{51}{Class Documentation}{section*.61}{}}
\gdef \LT@lvii {\LT@entry 
    {3}{52.18336pt}\LT@entry 
    {3}{120.08282pt}}
\newlabel{classMyOptimizer_a519186e1ea5a4ed267c7c60d419944c8}{{5}{52}{Class Documentation}{section*.62}{}}
\newlabel{classMyOptimizer_ab3a4cb6b57b0d1122219845114550cde}{{5}{52}{Class Documentation}{section*.62}{}}
\newlabel{classMyOptimizer_af4460549073380d34ce64214fa230fce}{{5}{52}{Class Documentation}{section*.62}{}}
\newlabel{classMyOptimizer_a2c2ddda5f2af6edf3e8baae69604bbd9}{{5}{52}{Class Documentation}{section*.62}{}}
\newlabel{classMyOptimizer_ab4dda123f20e90f78e5236e5061bcae1}{{5}{52}{Class Documentation}{section*.62}{}}
\newlabel{classMyOptimizer_a004231b20429f9df981421e8353c32b3}{{5}{52}{Class Documentation}{section*.62}{}}
\newlabel{classMyOptimizer_a4caf1cc073150e17ee9f2f739934add5}{{5}{52}{Class Documentation}{section*.62}{}}
\newlabel{classMyOptimizer_a21ea45f797e82538065d39cde2b93211}{{5}{52}{Class Documentation}{section*.62}{}}
\newlabel{classMyOptimizer_a82a0062b68b2415511023a437817fd22}{{5}{52}{Class Documentation}{section*.62}{}}
\newlabel{classMyOptimizer_a0209cfdb3d7b81e1871772ca2c9799b2}{{5}{52}{Class Documentation}{section*.62}{}}
\newlabel{classMyOptimizer_a3873424d232c8b07ab676ffd8091d5a6}{{5}{52}{Class Documentation}{section*.62}{}}
\newlabel{classMyOptimizer_a31474e6d35950b4146ef8968c9cb1268}{{5}{52}{Class Documentation}{section*.62}{}}
\newlabel{classMyOptimizer_ac8de916ae75d7cc8e45e282c1ef135c3}{{5}{52}{Class Documentation}{section*.62}{}}
\newlabel{classMyOptimizer_a24a2d4abf02c21393dfd66dfd2543efd}{{5}{52}{Class Documentation}{section*.62}{}}
\newlabel{classMyOptimizer_a26f73329c2d62ba3cef6305814450c1f}{{5}{52}{Class Documentation}{section*.63}{}}
\newlabel{classMyOptimizer_a93d6ed6ea68f42997076b0971bf1aedb}{{5}{52}{Class Documentation}{section*.63}{}}
\newlabel{classMyOptimizer_a5c4d25d79981c4934fd61739dce704e0}{{5}{52}{Class Documentation}{section*.63}{}}
\newlabel{classMyOptimizer_a52777e78ddc3d868f331a32a8f418cab}{{5}{52}{Class Documentation}{section*.63}{}}
\newlabel{classMyOptimizer_aab1fe1bbef2ddc558d4a982a2e4ca4ce}{{5}{52}{Class Documentation}{section*.63}{}}
\@writefile{toc}{\contentsline {subsection}{\numberline {5.21.1}Detailed Description}{52}{subsection.5.21.1}}
\@writefile{toc}{\contentsline {subsection}{\numberline {5.21.2}Constructor \& Destructor Documentation}{52}{subsection.5.21.2}}
\newlabel{classMyOptimizer_aaa65245880c942928a1f6f2dfb32aad6}{{5}{52}{Class Documentation}{subsection.5.21.2}{}}
\@writefile{toc}{\contentsline {subsubsection}{\numberline {5.21.2.1}MyOptimizer()}{52}{subsubsection.5.21.2.1}}
\@writefile{toc}{\contentsline {section}{\numberline {5.22}My\discretionary {\unhbox \voidb@x \hbox {\relax \fontsize  {7}{8}\selectfont  $\leftarrow \joinrel  \rhook $}}{}{}Optimizer\discretionary {\unhbox \voidb@x \hbox {\relax \fontsize  {7}{8}\selectfont  $\leftarrow \joinrel  \rhook $}}{}{}::nlopt\discretionary {\unhbox \voidb@x \hbox {\relax \fontsize  {7}{8}\selectfont  $\leftarrow \joinrel  \rhook $}}{}{}\_\discretionary {\unhbox \voidb@x \hbox {\relax \fontsize  {7}{8}\selectfont  $\leftarrow \joinrel  \rhook $}}{}{}cons\discretionary {\unhbox \voidb@x \hbox {\relax \fontsize  {7}{8}\selectfont  $\leftarrow \joinrel  \rhook $}}{}{}\_\discretionary {\unhbox \voidb@x \hbox {\relax \fontsize  {7}{8}\selectfont  $\leftarrow \joinrel  \rhook $}}{}{}grad\discretionary {\unhbox \voidb@x \hbox {\relax \fontsize  {7}{8}\selectfont  $\leftarrow \joinrel  \rhook $}}{}{}\_\discretionary {\unhbox \voidb@x \hbox {\relax \fontsize  {7}{8}\selectfont  $\leftarrow \joinrel  \rhook $}}{}{}data Struct Reference}{53}{section.5.22}}
\newlabel{structMyOptimizer_1_1nlopt__cons__grad__data}{{5}{53}{Class Documentation}{section.5.22}{}}
\newlabel{structMyOptimizer_1_1nlopt__cons__grad__data_a49b564c00b9d880cf07a25238fa47401}{{5}{53}{Class Documentation}{section*.64}{}}
\newlabel{structMyOptimizer_1_1nlopt__cons__grad__data_acc9dec788e765196c6cad2e21ad01e25}{{5}{53}{Class Documentation}{section*.64}{}}
\@writefile{toc}{\contentsline {section}{\numberline {5.23}Poisson Class Reference}{53}{section.5.23}}
\newlabel{classPoisson}{{5}{53}{Class Documentation}{section.5.23}{}}
\newlabel{classPoisson_ad710f67f5ce8bf9dad100ad1c75a1074}{{5}{53}{Class Documentation}{section*.65}{}}
\newlabel{classPoisson_ac931b3e221ffa3b6e000ecdc4aa93ccc}{{5}{53}{Class Documentation}{section*.65}{}}
\newlabel{classPoisson_a2553204138d4510ec962b83458dfe9a8}{{5}{53}{Class Documentation}{section*.65}{}}
\newlabel{classPoisson_ad695cb5501f70d80f6983091218f0e5c}{{5}{53}{Class Documentation}{section*.65}{}}
\newlabel{classPoisson_a08c92c1aba8725dadd91e3c8b2d9bc8d}{{5}{53}{Class Documentation}{section*.65}{}}
\newlabel{classPoisson_a937da9962dfa27e11bc36d11a1f13aad}{{5}{53}{Class Documentation}{section*.65}{}}
\newlabel{classPoisson_aea68be377f4ec34b8b178dffd59f1a29}{{5}{53}{Class Documentation}{section*.65}{}}
\newlabel{classPoisson_aa2087bc47d407986e9f1db6f6ff92d28}{{5}{53}{Class Documentation}{section*.66}{}}
\newlabel{classPoisson_aaf9df6cd0d55900903385a954de61419}{{5}{53}{Class Documentation}{section*.66}{}}
\newlabel{classPoisson_a204cd03ca623327bfcba08f1b7281696}{{5}{53}{Class Documentation}{section*.66}{}}
\newlabel{classPoisson_a8d4b83defd089bf1cf44ca478d2df187}{{5}{53}{Class Documentation}{section*.66}{}}
\newlabel{classPoisson_a68764cc72c824a40fae619d99bd8b63f}{{5}{53}{Class Documentation}{section*.66}{}}
\newlabel{classPoisson_a7f6bd0193d91d73dfa1f513172f96905}{{5}{53}{Class Documentation}{section*.66}{}}
\newlabel{classPoisson_a5e76efc5e1184985faae0e67f4393ee7}{{5}{53}{Class Documentation}{section*.66}{}}
\newlabel{classPoisson_ab681c2af169f825198fff2b79df9ad17}{{5}{53}{Class Documentation}{section*.66}{}}
\newlabel{classPoisson_a77441f3a6f1054e51c37e4b4352063a6}{{5}{53}{Class Documentation}{section*.66}{}}
\newlabel{classPoisson_a1e74fddada7743b5c9099ffcf03ebd7a}{{5}{53}{Class Documentation}{section*.66}{}}
\newlabel{classPoisson_a76db4231a50f0c2fa029e8ece0ae019d}{{5}{53}{Class Documentation}{section*.66}{}}
\newlabel{classPoisson_a59cd828f16a659ef40b4e736342b2419}{{5}{54}{Class Documentation}{section*.67}{}}
\newlabel{classPoisson_a7dbf3fcae8b4b55ac3d0b22d7126810a}{{5}{54}{Class Documentation}{section*.67}{}}
\newlabel{classPoisson_ad57b1039d5c2e7a8b3a0fa61db5ca50f}{{5}{54}{Class Documentation}{section*.67}{}}
\newlabel{classPoisson_a51f0210e44ce28ca7992c4cc060652be}{{5}{54}{Class Documentation}{section*.67}{}}
\newlabel{classPoisson_a0e8acf8cddd30c86e5714e5cc5d78c50}{{5}{54}{Class Documentation}{section*.67}{}}
\newlabel{classPoisson_a64cfc21843b71c8f411888a7c050cea6}{{5}{54}{Class Documentation}{section*.67}{}}
\newlabel{classPoisson_a36e865e83f2a4c7d90a6bab31658ce53}{{5}{54}{Class Documentation}{section*.67}{}}
\newlabel{classPoisson_afcf9771acf72df6405932c9ac70d87ba}{{5}{54}{Class Documentation}{section*.67}{}}
\newlabel{classPoisson_aa0982063fc7384ef71516a91468b1faf}{{5}{54}{Class Documentation}{section*.67}{}}
\newlabel{classPoisson_ac8db3d932f0774da386aafce7646ab2b}{{5}{54}{Class Documentation}{section*.67}{}}
\newlabel{classPoisson_a167e9338346eb33dd6e2624d9d51be7a}{{5}{54}{Class Documentation}{section*.68}{}}
\newlabel{classPoisson_a8b4819a829d86bc9b28877dfdabab70c}{{5}{54}{Class Documentation}{section*.68}{}}
\newlabel{classPoisson_a31efdd65329ae252f1d8cf222304c3df}{{5}{54}{Class Documentation}{section*.68}{}}
\newlabel{classPoisson_acebc5c535877fac6c5dbcc31ef18f060}{{5}{54}{Class Documentation}{section*.68}{}}
\@writefile{toc}{\contentsline {section}{\numberline {5.24}Sensitivity Class Reference}{54}{section.5.24}}
\newlabel{classSensitivity}{{5}{54}{Class Documentation}{section.5.24}{}}
\newlabel{classSensitivity_a743bf64d14222c6d54e290b1b5f9a9b2}{{5}{54}{Class Documentation}{section*.69}{}}
\newlabel{classSensitivity_a324d53fa32e158aaefd50fde45d90a31}{{5}{54}{Class Documentation}{section*.70}{}}
\newlabel{classSensitivity_a72c5e93eeb15bc51d6f5db2486d131d2}{{5}{54}{Class Documentation}{section*.70}{}}
\newlabel{classSensitivity_a4b861cd2a06eaff1da3bd87ae5ecf95e}{{5}{54}{Class Documentation}{section*.70}{}}
\gdef \LT@lviii {\LT@entry 
    {3}{58.22215pt}\LT@entry 
    {3}{55.92297pt}}
\newlabel{classSensitivity_ad9de97cc4c025c1e6800fadbe7c2c8bd}{{5}{55}{Class Documentation}{section*.71}{}}
\newlabel{classSensitivity_a08b6d0ed39968090c732fbc4004d5fb1}{{5}{55}{Class Documentation}{section*.71}{}}
\newlabel{classSensitivity_a7d8e874fb8e920696817a7e382461c89}{{5}{55}{Class Documentation}{section*.71}{}}
\newlabel{classSensitivity_a4cffd82703f3d0cea6e89dc7db03fc36}{{5}{55}{Class Documentation}{section*.71}{}}
\newlabel{classSensitivity_af6b49e0aead37294e055290a8b6d3f4f}{{5}{55}{Class Documentation}{section*.71}{}}
\newlabel{classSensitivity_aae845b89475f2453c09306fa2906b50e}{{5}{55}{Class Documentation}{section*.71}{}}
\newlabel{classSensitivity_a9b89b8f0c51043331a3f8de7296f9122}{{5}{55}{Class Documentation}{section*.71}{}}
\newlabel{classSensitivity_abdb52dc74f92009f3ee798cc66a617bb}{{5}{55}{Class Documentation}{section*.71}{}}
\newlabel{classSensitivity_acbd12f0e51d811435edbfac40721b115}{{5}{55}{Class Documentation}{section*.71}{}}
\newlabel{classSensitivity_a5649a0037c41ed7a816cd328f1981a20}{{5}{55}{Class Documentation}{section*.71}{}}
\@writefile{toc}{\contentsline {subsection}{\numberline {5.24.1}Detailed Description}{55}{subsection.5.24.1}}
\@writefile{toc}{\contentsline {subsection}{\numberline {5.24.2}Constructor \& Destructor Documentation}{55}{subsection.5.24.2}}
\newlabel{classSensitivity_a12e42e36c520c807da33c6e83ec417be}{{5}{55}{Class Documentation}{subsection.5.24.2}{}}
\@writefile{toc}{\contentsline {subsubsection}{\numberline {5.24.2.1}Sensitivity()}{55}{subsubsection.5.24.2.1}}
\@writefile{toc}{\contentsline {section}{\numberline {5.25}Stencil Class Reference}{55}{section.5.25}}
\newlabel{classStencil}{{5}{55}{Class Documentation}{section.5.25}{}}
\newlabel{classStencil_a552d41f958cb81ffb5f8488227ba1366}{{5}{56}{Class Documentation}{section*.74}{}}
\newlabel{classStencil_a3585100dcee2614b7d3ec8e887c5e747}{{5}{56}{Class Documentation}{section*.74}{}}
\newlabel{classStencil_aff48ece636fe7587ddc6a070023d022d}{{5}{56}{Class Documentation}{section*.74}{}}
\newlabel{classStencil_a7179e07b59a019c20aa5325f89358968}{{5}{56}{Class Documentation}{section*.74}{}}
\newlabel{classStencil_a0f9eb821fd1d3e8803fd49c5a9162c6f}{{5}{56}{Class Documentation}{section*.74}{}}
\newlabel{classStencil_a1ced82864ba101ee13b6f1dc084bacb4}{{5}{56}{Class Documentation}{section*.74}{}}
\newlabel{classStencil_a59a3691a59b075cfe252ae5a70fcbc56}{{5}{56}{Class Documentation}{section*.74}{}}
\newlabel{classStencil_a1a5d705eb304aa539f37b1dae2a4e4e0}{{5}{56}{Class Documentation}{section*.74}{}}
\@writefile{toc}{\contentsline {subsection}{\numberline {5.25.1}Detailed Description}{57}{subsection.5.25.1}}
\@writefile{toc}{\contentsline {subsection}{\numberline {5.25.2}Constructor \& Destructor Documentation}{57}{subsection.5.25.2}}
\newlabel{classStencil_ae9a7e09a52f0ffd8d1ebb6bdbb06a3d6}{{5}{57}{Class Documentation}{subsection.5.25.2}{}}
\@writefile{toc}{\contentsline {subsubsection}{\numberline {5.25.2.1}Stencil()}{57}{subsubsection.5.25.2.1}}
\gdef \LT@lix {\LT@entry 
    {3}{36.81165pt}\LT@entry 
    {3}{168.09631pt}}
\gdef \LT@lx {\LT@entry 
    {3}{36.80263pt}\LT@entry 
    {3}{371.71648pt}}
\gdef \LT@lxi {\LT@entry 
    {3}{30.79974pt}\LT@entry 
    {3}{305.95494pt}}
\@writefile{toc}{\contentsline {subsection}{\numberline {5.25.3}Member Function Documentation}{58}{subsection.5.25.3}}
\newlabel{classStencil_af4987858c074fc6c8f4a0c4209d207d3}{{5}{58}{Class Documentation}{subsection.5.25.3}{}}
\@writefile{toc}{\contentsline {subsubsection}{\numberline {5.25.3.1}CapIndices()}{58}{subsubsection.5.25.3.1}}
\newlabel{classStencil_a5898c31a7bceb0d9448d0ad1528754b2}{{5}{58}{Class Documentation}{table.5.60}{}}
\@writefile{toc}{\contentsline {subsubsection}{\numberline {5.25.3.2}GetValue()\hspace  {0.1cm}{\relax \fontsize  {8}{9.5}\selectfont  \abovedisplayskip 6\p@ plus2\p@ minus4\p@ \abovedisplayshortskip \z@ plus\p@ \belowdisplayshortskip 3\p@ plus\p@ minus2\p@ \def \leftmargin \leftmargini \parsep 4\p@ plus2\p@ minus\p@ \topsep 8\p@ plus2\p@ minus4\p@ \itemsep 4\p@ plus2\p@ minus\p@ {\leftmargin \leftmargini \topsep 3\p@ plus\p@ minus\p@ \parsep 2\p@ plus\p@ minus\p@ \itemsep \parsep }\belowdisplayskip \abovedisplayskip \ttfamily  [1/2]}}{58}{subsubsection.5.25.3.2}}
\gdef \LT@lxii {\LT@entry 
    {3}{56.32309pt}\LT@entry 
    {3}{305.95494pt}}
\gdef \LT@lxiii {\LT@entry 
    {3}{30.79974pt}\LT@entry 
    {3}{305.95494pt}}
\newlabel{classStencil_a10cbabe1d3f26f490e67236edb01c292}{{5}{59}{Class Documentation}{table.5.61}{}}
\@writefile{toc}{\contentsline {subsubsection}{\numberline {5.25.3.3}GetValue()\hspace  {0.1cm}{\relax \fontsize  {8}{9.5}\selectfont  \abovedisplayskip 6\p@ plus2\p@ minus4\p@ \abovedisplayshortskip \z@ plus\p@ \belowdisplayshortskip 3\p@ plus\p@ minus2\p@ \def \leftmargin \leftmargini \parsep 4\p@ plus2\p@ minus\p@ \topsep 8\p@ plus2\p@ minus4\p@ \itemsep 4\p@ plus2\p@ minus\p@ {\leftmargin \leftmargini \topsep 3\p@ plus\p@ minus\p@ \parsep 2\p@ plus\p@ minus\p@ \itemsep \parsep }\belowdisplayskip \abovedisplayskip \ttfamily  [2/2]}}{59}{subsubsection.5.25.3.3}}
\newlabel{classStencil_a241ef282bca51f434ccdbb89be8d1127}{{5}{59}{Class Documentation}{table.5.62}{}}
\@writefile{toc}{\contentsline {subsubsection}{\numberline {5.25.3.4}IsInBounds()}{59}{subsubsection.5.25.3.4}}
\@writefile{toc}{\contentsline {section}{\numberline {5.26}Top\discretionary {\unhbox \voidb@x \hbox {\relax \fontsize  {7}{8}\selectfont  $\leftarrow \joinrel  \rhook $}}{}{}Opt Class Reference}{60}{section.5.26}}
\newlabel{classTopOpt}{{5}{60}{Class Documentation}{section.5.26}{}}
\newlabel{classTopOpt_ac74f01df877b61d9d3aed62a5d4793a4}{{5}{60}{Class Documentation}{section*.75}{}}
\newlabel{classTopOpt_a2d311d0274a9cf48809259c51f8424c9}{{5}{60}{Class Documentation}{section*.76}{}}
\newlabel{classTopOpt_a2b694bee20757fc3750f0b5aa2c6ee9e}{{5}{60}{Class Documentation}{section*.76}{}}
\newlabel{classTopOpt_ad922af31a4d4e92da0ee6bbf7e621f39}{{5}{60}{Class Documentation}{section*.76}{}}
\newlabel{classTopOpt_ac784babb8ed19de54d5f0287882b4323}{{5}{60}{Class Documentation}{section*.76}{}}
\newlabel{classTopOpt_ad99c04b9bf26ffca6551c803a52cb6a7}{{5}{60}{Class Documentation}{section*.76}{}}
\newlabel{classTopOpt_a961c86d5acff633be7bd65e0616ef3b8}{{5}{60}{Class Documentation}{section*.76}{}}
\newlabel{classTopOpt_a6aae38a8f7fae7742705cfa7e14b3dc0}{{5}{60}{Class Documentation}{section*.76}{}}
\newlabel{classTopOpt_a7120fb12979fda31d3687b4d3d6af200}{{5}{60}{Class Documentation}{section*.76}{}}
\newlabel{classTopOpt_a6d632768bdbe26e64eb2d8567d54c932}{{5}{60}{Class Documentation}{section*.76}{}}
\newlabel{classTopOpt_af8c463303648005558f33e81bdf8511a}{{5}{60}{Class Documentation}{section*.76}{}}
\newlabel{classTopOpt_ab5015ec9f6d015c6998e8695f8b0499e}{{5}{60}{Class Documentation}{section*.76}{}}
\newlabel{classTopOpt_a3e1be8414529e5e2ac6f9a552b714c00}{{5}{60}{Class Documentation}{section*.76}{}}
\newlabel{classTopOpt_aff737ee338aa917cfbab91f92689e749}{{5}{60}{Class Documentation}{section*.76}{}}
\newlabel{classTopOpt_a67483b30ead43fb163ba2ffc526e2579}{{5}{60}{Class Documentation}{section*.76}{}}
\newlabel{classTopOpt_a6a387ecee0676ae619eec963c70f2e1d}{{5}{60}{Class Documentation}{section*.76}{}}
\newlabel{classTopOpt_a2da1d4867de91d3170a7d8de9b7ad661}{{5}{60}{Class Documentation}{section*.76}{}}
\newlabel{classTopOpt_a897c05f0844af117beeca122c71384f5}{{5}{60}{Class Documentation}{section*.76}{}}
\newlabel{classTopOpt_a81e0c0f56941ede4c1b653bee3633f1f}{{5}{60}{Class Documentation}{section*.76}{}}
\newlabel{classTopOpt_ae555b848aa9308502de6433c14b8910c}{{5}{60}{Class Documentation}{section*.76}{}}
\newlabel{classTopOpt_ab438fc50736893e38a0689b46530c2a8}{{5}{60}{Class Documentation}{section*.76}{}}
\newlabel{classTopOpt_ac537e693613a3d2163bfd0ba479304c3}{{5}{60}{Class Documentation}{section*.76}{}}
\newlabel{classTopOpt_afbe31be95f7dbc7b88f6ad6c3df4c0da}{{5}{60}{Class Documentation}{section*.76}{}}
\newlabel{classTopOpt_acaeeef72b9d42f90b4f81a06da7dee11}{{5}{60}{Class Documentation}{section*.76}{}}
\newlabel{classTopOpt_aa6313bcc91b8b6aa31d672361ff4ee0e}{{5}{60}{Class Documentation}{section*.76}{}}
\newlabel{classTopOpt_ac5a28f745e6fe72987a2d5aa64a7a994}{{5}{60}{Class Documentation}{section*.76}{}}
\newlabel{classTopOpt_a2284344aa9eb032aa4c657a03b047451}{{5}{60}{Class Documentation}{section*.76}{}}
\newlabel{classTopOpt_a4b0e172f3cbf2abddf1baef9d7d8ef58}{{5}{60}{Class Documentation}{section*.76}{}}
\newlabel{classTopOpt_a2120d98ad003e63dca5e5b12709e7b7b}{{5}{60}{Class Documentation}{section*.76}{}}
\newlabel{classTopOpt_a58fb3af0f9a14f86020c64bd2a143b66}{{5}{60}{Class Documentation}{section*.76}{}}
\newlabel{classTopOpt_a5ce1d126c126579c69f1382dcacc5566}{{5}{60}{Class Documentation}{section*.76}{}}
\newlabel{classTopOpt_a2f5764232496a43310255ed3d4bbb22e}{{5}{60}{Class Documentation}{section*.76}{}}
\newlabel{classTopOpt_a731e01a10f274f5c117276f61b821ef9}{{5}{60}{Class Documentation}{section*.76}{}}
\newlabel{classTopOpt_a890e68e5d5c5236157776170eefbbce3}{{5}{60}{Class Documentation}{section*.76}{}}
\newlabel{classTopOpt_a91b783d9624c8637c8bf0e0c3b3cbb82}{{5}{60}{Class Documentation}{section*.76}{}}
\newlabel{classTopOpt_ad77918b37b73449b8bc5f86cec67aac6}{{5}{60}{Class Documentation}{section*.76}{}}
\newlabel{classTopOpt_a67fdef3464b55deaad36db8bde320786}{{5}{60}{Class Documentation}{section*.76}{}}
\newlabel{classTopOpt_a04eb96db437f26e0abee6c875ceeac6f}{{5}{60}{Class Documentation}{section*.77}{}}
\newlabel{classTopOpt_add8d27f5af00d4e917309f363c6076f9}{{5}{60}{Class Documentation}{section*.77}{}}
\newlabel{classTopOpt_af4cd6596ef5b32a0e1f9c499bcd23b58}{{5}{60}{Class Documentation}{section*.77}{}}
\@writefile{toc}{\contentsline {section}{\numberline {5.27}Top\discretionary {\unhbox \voidb@x \hbox {\relax \fontsize  {7}{8}\selectfont  $\leftarrow \joinrel  \rhook $}}{}{}Opt1D Class Reference}{61}{section.5.27}}
\newlabel{classTopOpt1D}{{5}{61}{Class Documentation}{section.5.27}{}}
\newlabel{classTopOpt1D_a1f78ba93d7ddd26b0c7cdd62583beeb6}{{5}{61}{Class Documentation}{section*.78}{}}
\newlabel{classTopOpt1D_ab21449a4acbd8b37bb795030c0d41fa4}{{5}{61}{Class Documentation}{section*.79}{}}
\newlabel{classTopOpt1D_a74333e49e95adb401df322ff632948c5}{{5}{61}{Class Documentation}{section*.79}{}}
\newlabel{classTopOpt1D_a6ce1bb28c779888fcd0fbde524664dc1}{{5}{61}{Class Documentation}{section*.79}{}}
\newlabel{classTopOpt1D_ad40ff33bf811c1280f26859a206a3ec1}{{5}{61}{Class Documentation}{section*.79}{}}
\newlabel{classTopOpt1D_a54455a887c9a319f6c6d43f2720c4ee7}{{5}{61}{Class Documentation}{section*.79}{}}
\newlabel{classTopOpt1D_a1a0bd79170f3a1500d4cb3616ee55420}{{5}{61}{Class Documentation}{section*.79}{}}
\newlabel{classTopOpt1D_a9722edfe96f60124aafbff89bbdf51ea}{{5}{61}{Class Documentation}{section*.79}{}}
\newlabel{classTopOpt1D_a89628c2373aa060c8ee92b216b706d4f}{{5}{61}{Class Documentation}{section*.79}{}}
\newlabel{classTopOpt1D_a7cd55f3924009396af9183dd80348ce4}{{5}{61}{Class Documentation}{section*.79}{}}
\newlabel{classTopOpt1D_a1581c2ac31c1c945a5a6be740e177f6d}{{5}{61}{Class Documentation}{section*.79}{}}
\newlabel{classTopOpt1D_a9eb0b4575f88edb8863d799c160cfecd}{{5}{61}{Class Documentation}{section*.79}{}}
\newlabel{classTopOpt1D_ad78fa56d840cc3f5c712f474f1bd3738}{{5}{61}{Class Documentation}{section*.79}{}}
\newlabel{classTopOpt1D_a60054d125a50e68a4fc0f0c711d60063}{{5}{61}{Class Documentation}{section*.79}{}}
\newlabel{classTopOpt1D_ad7b368a592861fd86bffb48a2021de0d}{{5}{61}{Class Documentation}{section*.79}{}}
\newlabel{classTopOpt1D_af3d31e005a189cd6b60ed1f1e027894f}{{5}{61}{Class Documentation}{section*.79}{}}
\newlabel{classTopOpt1D_af1947cf692d72a51fc6965082ac4514a}{{5}{61}{Class Documentation}{section*.79}{}}
\newlabel{classTopOpt1D_a3f25af5fdae79df29823a5d0e6902966}{{5}{61}{Class Documentation}{section*.79}{}}
\newlabel{classTopOpt1D_aeb517f6849c0c3c6cdf6508f390abbb1}{{5}{61}{Class Documentation}{section*.79}{}}
\newlabel{classTopOpt1D_a84addbc25c916d81a9369146b9e72057}{{5}{61}{Class Documentation}{section*.79}{}}
\newlabel{classTopOpt1D_a83918cf2d22cf89f2a269692c1487ea9}{{5}{61}{Class Documentation}{section*.79}{}}
\newlabel{classTopOpt1D_ae96c3a5ea0612673cb1bd0a2a3fcc7d0}{{5}{61}{Class Documentation}{section*.79}{}}
\newlabel{classTopOpt1D_a9de824f817d939ec564a67c051db4997}{{5}{61}{Class Documentation}{section*.79}{}}
\newlabel{classTopOpt1D_a537559ad28c93bd78da430572e340d79}{{5}{61}{Class Documentation}{section*.79}{}}
\newlabel{classTopOpt1D_a139e60e972fdb15cbc891f0231464dee}{{5}{61}{Class Documentation}{section*.79}{}}
\newlabel{classTopOpt1D_a7bf9357b8487bae1695c09000364db53}{{5}{61}{Class Documentation}{section*.79}{}}
\newlabel{classTopOpt1D_a9a92e16f0cc498382268012346acee59}{{5}{61}{Class Documentation}{section*.79}{}}
\newlabel{classTopOpt1D_a0d962a52c6b0c9d4815c6d9cadabda4a}{{5}{61}{Class Documentation}{section*.79}{}}
\newlabel{classTopOpt1D_a6119c7b7528c5e160cb2788ae9485c05}{{5}{61}{Class Documentation}{section*.79}{}}
\newlabel{classTopOpt1D_a329e04d60f9ebbdd52284662831da98a}{{5}{61}{Class Documentation}{section*.79}{}}
\newlabel{classTopOpt1D_a36ee9e4c0b9feaa927d8f2f6714d4840}{{5}{61}{Class Documentation}{section*.79}{}}
\newlabel{classTopOpt1D_afe8fd0ab1486fde90a2f2171ab463415}{{5}{61}{Class Documentation}{section*.79}{}}
\newlabel{classTopOpt1D_ac6723e6a49756871837f3ef743a98460}{{5}{61}{Class Documentation}{section*.79}{}}
\newlabel{classTopOpt1D_a795b95a328c5de334cf3ffa743af1a9e}{{5}{61}{Class Documentation}{section*.79}{}}
\newlabel{classTopOpt1D_aaf550df8e7ed89991f67dedc81e34892}{{5}{61}{Class Documentation}{section*.79}{}}
\newlabel{classTopOpt1D_ac6c6ea2139bf57e6dba4e65a60b9993b}{{5}{61}{Class Documentation}{section*.80}{}}
\newlabel{classTopOpt1D_af13bd241ca516d6a51d24131ecdbd012}{{5}{61}{Class Documentation}{section*.80}{}}
\newlabel{classTopOpt1D_a0ea77cbc381fa9b22fa2f3acc19f9977}{{5}{61}{Class Documentation}{section*.80}{}}
\@writefile{toc}{\contentsline {section}{\numberline {5.28}Triangle Struct Reference}{62}{section.5.28}}
\newlabel{structTriangle}{{5}{62}{Class Documentation}{section.5.28}{}}
\newlabel{structTriangle_ad3fec8b7cac3bf5cf5b30ab269bdb8af}{{5}{62}{Class Documentation}{section*.81}{}}
\@writefile{toc}{\contentsline {subsection}{\numberline {5.28.1}Detailed Description}{62}{subsection.5.28.1}}
\@writefile{toc}{\contentsline {section}{\numberline {5.29}Vel\discretionary {\unhbox \voidb@x \hbox {\relax \fontsize  {7}{8}\selectfont  $\leftarrow \joinrel  \rhook $}}{}{}Grad\discretionary {\unhbox \voidb@x \hbox {\relax \fontsize  {7}{8}\selectfont  $\leftarrow \joinrel  \rhook $}}{}{}Stencil Class Reference}{62}{section.5.29}}
\newlabel{classVelGradStencil}{{5}{62}{Class Documentation}{section.5.29}{}}
\gdef \LT@lxiv {\LT@entry 
    {3}{55.3151pt}\LT@entry 
    {3}{168.09631pt}}
\newlabel{classVelGradStencil_a2ad847fabe60c6f6f8dd02b55d8abf16}{{5}{63}{Class Documentation}{section*.84}{}}
\newlabel{classVelGradStencil_a8e78bf4363a9b80ad50eafc9d3200af8}{{5}{63}{Class Documentation}{section*.84}{}}
\newlabel{classStencil_a552d41f958cb81ffb5f8488227ba1366}{{5}{63}{Class Documentation}{section*.84}{}}
\newlabel{classStencil_a3585100dcee2614b7d3ec8e887c5e747}{{5}{63}{Class Documentation}{section*.84}{}}
\newlabel{classStencil_aff48ece636fe7587ddc6a070023d022d}{{5}{63}{Class Documentation}{section*.84}{}}
\newlabel{classStencil_a7179e07b59a019c20aa5325f89358968}{{5}{63}{Class Documentation}{section*.84}{}}
\newlabel{classStencil_a0f9eb821fd1d3e8803fd49c5a9162c6f}{{5}{63}{Class Documentation}{section*.84}{}}
\newlabel{classStencil_a1ced82864ba101ee13b6f1dc084bacb4}{{5}{63}{Class Documentation}{section*.84}{}}
\newlabel{classStencil_a59a3691a59b075cfe252ae5a70fcbc56}{{5}{63}{Class Documentation}{section*.84}{}}
\newlabel{classStencil_a1a5d705eb304aa539f37b1dae2a4e4e0}{{5}{63}{Class Documentation}{section*.84}{}}
\@writefile{toc}{\contentsline {subsection}{\numberline {5.29.1}Detailed Description}{63}{subsection.5.29.1}}
\@writefile{toc}{\contentsline {subsection}{\numberline {5.29.2}Constructor \& Destructor Documentation}{63}{subsection.5.29.2}}
\newlabel{classVelGradStencil_acb82eb5389c92cfb885cd06bd7db127b}{{5}{63}{Class Documentation}{subsection.5.29.2}{}}
\@writefile{toc}{\contentsline {subsubsection}{\numberline {5.29.2.1}VelGradStencil()}{63}{subsubsection.5.29.2.1}}
\gdef \LT@lxv {\LT@entry 
    {3}{36.80263pt}\LT@entry 
    {3}{371.71648pt}}
\gdef \LT@lxvi {\LT@entry 
    {3}{30.79974pt}\LT@entry 
    {3}{305.95494pt}}
\@writefile{toc}{\contentsline {subsection}{\numberline {5.29.3}Member Function Documentation}{64}{subsection.5.29.3}}
\newlabel{classStencil_af4987858c074fc6c8f4a0c4209d207d3}{{5}{64}{Class Documentation}{subsection.5.29.3}{}}
\@writefile{toc}{\contentsline {subsubsection}{\numberline {5.29.3.1}CapIndices()}{64}{subsubsection.5.29.3.1}}
\newlabel{classStencil_a5898c31a7bceb0d9448d0ad1528754b2}{{5}{64}{Class Documentation}{table.5.65}{}}
\@writefile{toc}{\contentsline {subsubsection}{\numberline {5.29.3.2}GetValue()\hspace  {0.1cm}{\relax \fontsize  {8}{9.5}\selectfont  \abovedisplayskip 6\p@ plus2\p@ minus4\p@ \abovedisplayshortskip \z@ plus\p@ \belowdisplayshortskip 3\p@ plus\p@ minus2\p@ \def \leftmargin \leftmargini \parsep 4\p@ plus2\p@ minus\p@ \topsep 8\p@ plus2\p@ minus4\p@ \itemsep 4\p@ plus2\p@ minus\p@ {\leftmargin \leftmargini \topsep 3\p@ plus\p@ minus\p@ \parsep 2\p@ plus\p@ minus\p@ \itemsep \parsep }\belowdisplayskip \abovedisplayskip \ttfamily  [1/2]}}{64}{subsubsection.5.29.3.2}}
\newlabel{classStencil_a10cbabe1d3f26f490e67236edb01c292}{{5}{64}{Class Documentation}{table.5.66}{}}
\@writefile{toc}{\contentsline {subsubsection}{\numberline {5.29.3.3}GetValue()\hspace  {0.1cm}{\relax \fontsize  {8}{9.5}\selectfont  \abovedisplayskip 6\p@ plus2\p@ minus4\p@ \abovedisplayshortskip \z@ plus\p@ \belowdisplayshortskip 3\p@ plus\p@ minus2\p@ \def \leftmargin \leftmargini \parsep 4\p@ plus2\p@ minus\p@ \topsep 8\p@ plus2\p@ minus4\p@ \itemsep 4\p@ plus2\p@ minus\p@ {\leftmargin \leftmargini \topsep 3\p@ plus\p@ minus\p@ \parsep 2\p@ plus\p@ minus\p@ \itemsep \parsep }\belowdisplayskip \abovedisplayskip \ttfamily  [2/2]}}{64}{subsubsection.5.29.3.3}}
\gdef \LT@lxvii {\LT@entry 
    {3}{56.32309pt}\LT@entry 
    {3}{305.95494pt}}
\gdef \LT@lxviii {\LT@entry 
    {3}{47.21526pt}\LT@entry 
    {3}{127.98456pt}}
\gdef \LT@lxix {\LT@entry 
    {3}{30.79974pt}\LT@entry 
    {3}{305.95494pt}}
\newlabel{classVelGradStencil_a58434de46ca429f0a0b7b79beb98514f}{{5}{65}{Class Documentation}{table.5.67}{}}
\@writefile{toc}{\contentsline {subsubsection}{\numberline {5.29.3.4}GetVelGrad()}{65}{subsubsection.5.29.3.4}}
\newlabel{classStencil_a241ef282bca51f434ccdbb89be8d1127}{{5}{65}{Class Documentation}{table.5.68}{}}
\@writefile{toc}{\contentsline {subsubsection}{\numberline {5.29.3.5}IsInBounds()}{65}{subsubsection.5.29.3.5}}
\@writefile{toc}{\contentsline {section}{\numberline {5.30}Wrapper Class Reference}{66}{section.5.30}}
\newlabel{classWrapper}{{5}{66}{Class Documentation}{section.5.30}{}}
\newlabel{classWrapper_a06e8ae645d7c1957d2c1e3b57f68a3e2}{{5}{66}{Class Documentation}{section*.85}{}}
\newlabel{classWrapper_a9b58ca3fb493bfe2ddaaf772e701e904}{{5}{66}{Class Documentation}{section*.85}{}}
\@writefile{toc}{\contentsline {chapter}{\numberline {6}File Documentation}{67}{chapter.6}}
\@writefile{lof}{\addvspace {10\p@ }}
\@writefile{lot}{\addvspace {10\p@ }}
\@writefile{toc}{\contentsline {section}{\numberline {6.1}lsm/include/boundary.h File Reference}{67}{section.6.1}}
\newlabel{boundary_8h}{{6}{67}{File Documentation}{section.6.1}{}}
\@writefile{toc}{\contentsline {subsection}{\numberline {6.1.1}Detailed Description}{67}{subsection.6.1.1}}
\@writefile{toc}{\contentsline {section}{\numberline {6.2}lsm/include/grid\discretionary {\unhbox \voidb@x \hbox {\relax \fontsize  {7}{8}\selectfont  $\leftarrow \joinrel  \rhook $}}{}{}\_\discretionary {\unhbox \voidb@x \hbox {\relax \fontsize  {7}{8}\selectfont  $\leftarrow \joinrel  \rhook $}}{}{}math.h File Reference}{67}{section.6.2}}
\newlabel{grid__math_8h}{{6}{67}{File Documentation}{section.6.2}{}}
\@writefile{toc}{\contentsline {subsection}{\numberline {6.2.1}Detailed Description}{68}{subsection.6.2.1}}
\@writefile{toc}{\contentsline {section}{\numberline {6.3}lsm/include/lsm\discretionary {\unhbox \voidb@x \hbox {\relax \fontsize  {7}{8}\selectfont  $\leftarrow \joinrel  \rhook $}}{}{}\_\discretionary {\unhbox \voidb@x \hbox {\relax \fontsize  {7}{8}\selectfont  $\leftarrow \joinrel  \rhook $}}{}{}3d.h File Reference}{68}{section.6.3}}
\newlabel{lsm__3d_8h}{{6}{68}{File Documentation}{section.6.3}{}}
\@writefile{toc}{\contentsline {subsection}{\numberline {6.3.1}Detailed Description}{69}{subsection.6.3.1}}
\@writefile{toc}{\contentsline {section}{\numberline {6.4}lsm/include/optimize.h File Reference}{69}{section.6.4}}
\newlabel{optimize_8h}{{6}{69}{File Documentation}{section.6.4}{}}
\@writefile{toc}{\contentsline {subsection}{\numberline {6.4.1}Detailed Description}{69}{subsection.6.4.1}}
